EESchema Schematic File Version 2
LIBS:power
LIBS:device
LIBS:transistors
LIBS:conn
LIBS:linear
LIBS:regul
LIBS:74xx
LIBS:cmos4000
LIBS:adc-dac
LIBS:memory
LIBS:xilinx
LIBS:microcontrollers
LIBS:dsp
LIBS:microchip
LIBS:analog_switches
LIBS:motorola
LIBS:texas
LIBS:intel
LIBS:audio
LIBS:interface
LIBS:digital-audio
LIBS:philips
LIBS:display
LIBS:cypress
LIBS:siliconi
LIBS:opto
LIBS:atmel
LIBS:contrib
LIBS:valves
LIBS:plytka2-cache
EELAYER 25 0
EELAYER END
$Descr A4 11693 8268
encoding utf-8
Sheet 1 1
Title ""
Date ""
Rev ""
Comp ""
Comment1 ""
Comment2 ""
Comment3 ""
Comment4 ""
$EndDescr
$Comp
L VCC #PWR01
U 1 1 56E56590
P 10550 6200
F 0 "#PWR01" H 10550 6050 50  0001 C CNN
F 1 "VCC" H 10550 6350 50  0000 C CNN
F 2 "" H 10550 6200 50  0000 C CNN
F 3 "" H 10550 6200 50  0000 C CNN
	1    10550 6200
	1    0    0    -1  
$EndComp
$Comp
L GND #PWR02
U 1 1 56E565A4
P 10850 6250
F 0 "#PWR02" H 10850 6000 50  0001 C CNN
F 1 "GND" H 10850 6100 50  0000 C CNN
F 2 "" H 10850 6250 50  0000 C CNN
F 3 "" H 10850 6250 50  0000 C CNN
	1    10850 6250
	1    0    0    -1  
$EndComp
$Comp
L PWR_FLAG #FLG03
U 1 1 56E565B8
P 10850 6250
F 0 "#FLG03" H 10850 6345 50  0001 C CNN
F 1 "PWR_FLAG" H 10850 6430 50  0000 C CNN
F 2 "" H 10850 6250 50  0000 C CNN
F 3 "" H 10850 6250 50  0000 C CNN
	1    10850 6250
	1    0    0    -1  
$EndComp
$Comp
L PWR_FLAG #FLG04
U 1 1 56E565CC
P 10550 6200
F 0 "#FLG04" H 10550 6295 50  0001 C CNN
F 1 "PWR_FLAG" H 10550 6380 50  0000 C CNN
F 2 "" H 10550 6200 50  0000 C CNN
F 3 "" H 10550 6200 50  0000 C CNN
	1    10550 6200
	-1   0    0    1   
$EndComp
$Comp
L ATMEGA328-P IC1
U 1 1 56E56603
P 5600 2600
F 0 "IC1" H 4850 3850 50  0000 L BNN
F 1 "ATMEGA328-P" H 6000 1200 50  0000 L BNN
F 2 "Housings_DIP:DIP-28_W7.62mm_LongPads" H 5600 2600 50  0001 C CIN
F 3 "" H 5600 2600 50  0000 C CNN
	1    5600 2600
	1    0    0    -1  
$EndComp
$Comp
L CONN_01X02 P1
U 1 1 56E569C3
P 1550 1650
F 0 "P1" H 1550 1800 50  0000 C CNN
F 1 "Zasilanie +5V" V 1650 1650 50  0000 C CNN
F 2 "Pin_Headers:Pin_Header_Straight_1x02" H 1550 1650 50  0001 C CNN
F 3 "" H 1550 1650 50  0000 C CNN
	1    1550 1650
	-1   0    0    1   
$EndComp
$Comp
L INDUCTOR L1
U 1 1 56E5700E
P 4200 1350
F 0 "L1" V 4150 1350 50  0000 C CNN
F 1 "INDUCTOR" V 4300 1350 50  0000 C CNN
F 2 "Choke_Axial_ThroughHole:Choke_Horizontal_RM15mm" H 4200 1350 50  0001 C CNN
F 3 "" H 4200 1350 50  0000 C CNN
	1    4200 1350
	1    0    0    -1  
$EndComp
$Comp
L R R1
U 1 1 56E570B4
P 6850 2800
F 0 "R1" V 6930 2800 50  0000 C CNN
F 1 "R" V 6850 2800 50  0000 C CNN
F 2 "Resistors_ThroughHole:Resistor_Horizontal_RM15mm" V 6780 2800 50  0001 C CNN
F 3 "" H 6850 2800 50  0000 C CNN
	1    6850 2800
	1    0    0    -1  
$EndComp
$Comp
L C C2
U 1 1 56E572E1
P 4200 1950
F 0 "C2" H 4225 2050 50  0000 L CNN
F 1 "C" H 4225 1850 50  0000 L CNN
F 2 "Capacitors_ThroughHole:C_Rect_L7_W4.5_P5" H 4238 1800 50  0001 C CNN
F 3 "" H 4200 1950 50  0000 C CNN
	1    4200 1950
	1    0    0    -1  
$EndComp
$Comp
L C C3
U 1 1 56E57349
P 4450 2250
F 0 "C3" H 4475 2350 50  0000 L CNN
F 1 "100nF" H 4475 2150 50  0000 L CNN
F 2 "Capacitors_ThroughHole:C_Rect_L7_W4.5_P5" H 4488 2100 50  0001 C CNN
F 3 "" H 4450 2250 50  0000 C CNN
	1    4450 2250
	1    0    0    -1  
$EndComp
$Comp
L C C1
U 1 1 56E573AE
P 3500 1200
F 0 "C1" H 3525 1300 50  0000 L CNN
F 1 "100nF" H 3525 1100 50  0000 L CNN
F 2 "Capacitors_ThroughHole:C_Rect_L7_W4.5_P5" H 3538 1050 50  0001 C CNN
F 3 "" H 3500 1200 50  0000 C CNN
	1    3500 1200
	1    0    0    -1  
$EndComp
Wire Wire Line
	4700 2100 4450 2100
Wire Wire Line
	4450 2400 3700 2400
Wire Wire Line
	3700 2400 3700 1700
Wire Wire Line
	3700 1700 1750 1700
Wire Wire Line
	4200 2100 4200 2400
Connection ~ 4200 2400
Wire Wire Line
	6850 1050 6850 2650
Wire Wire Line
	3500 1050 6850 1050
Connection ~ 4200 1050
Wire Wire Line
	3500 1350 3500 1700
Connection ~ 3500 1700
Wire Wire Line
	4700 1500 4700 950 
Wire Wire Line
	4700 950  1750 950 
Wire Wire Line
	3500 1050 3500 950 
Connection ~ 3500 950 
Wire Wire Line
	2850 3700 2850 1700
Connection ~ 2850 1700
$Comp
L CONN_02X05 P3
U 1 1 56E58F35
P 8100 1750
F 0 "P3" H 8100 2050 50  0000 C CNN
F 1 "IDC opis w pliku txt" H 7850 2150 50  0000 C CNN
F 2 "Pin_Headers:Pin_Header_Straight_2x05" H 8100 550 50  0001 C CNN
F 3 "" H 8100 550 50  0000 C CNN
	1    8100 1750
	1    0    0    -1  
$EndComp
Connection ~ 6850 2950
Wire Wire Line
	6600 2950 7150 2950
Connection ~ 8350 1850
Connection ~ 8350 1750
Wire Wire Line
	4500 3700 4500 4100
Connection ~ 8350 1950
Connection ~ 4500 3700
Wire Wire Line
	3050 950  3050 850 
Wire Wire Line
	8350 850  8350 1550
Connection ~ 3050 950 
Wire Wire Line
	7850 1750 7150 1750
Connection ~ 7150 1750
Wire Wire Line
	7150 1750 7150 2950
Wire Wire Line
	6600 1800 6950 1800
Wire Wire Line
	6950 1800 6950 1550
Wire Wire Line
	6950 1550 7850 1550
Wire Wire Line
	6600 1900 7500 1900
Wire Wire Line
	7500 1900 7500 1950
Wire Wire Line
	7500 1950 7850 1950
Wire Wire Line
	7850 1850 7600 1850
Wire Wire Line
	7600 1850 7600 2000
Wire Wire Line
	7600 2000 6600 2000
$Comp
L Crystal Y1
U 1 1 56E5CB81
P 7400 2300
F 0 "Y1" H 7400 2450 50  0000 C CNN
F 1 "16MHz" H 7400 2150 50  0000 C CNN
F 2 "Crystals:Crystal_HC49-U_Vertical" H 7400 2300 50  0001 C CNN
F 3 "" H 7400 2300 50  0000 C CNN
	1    7400 2300
	0    -1   -1   0   
$EndComp
Wire Wire Line
	7400 2100 7400 2150
Wire Wire Line
	6950 2450 6950 2200
Wire Wire Line
	6950 2200 6600 2200
Connection ~ 7400 2450
Connection ~ 7400 2100
Connection ~ 8350 2450
Connection ~ 8350 850 
Wire Wire Line
	8350 1750 8350 4100
Wire Wire Line
	3050 850  8550 850 
Wire Wire Line
	8350 4100 4500 4100
Wire Wire Line
	1750 950  1750 1600
$Comp
L CONN_01X04 P2
U 1 1 56E64B61
P 6900 4900
F 0 "P2" H 6900 5150 50  0000 C CNN
F 1 "Do MAX232" V 7000 4900 50  0000 C CNN
F 2 "Pin_Headers:Pin_Header_Straight_1x04" H 6900 4900 50  0001 C CNN
F 3 "" H 6900 4900 50  0000 C CNN
	1    6900 4900
	0    1    1    0   
$EndComp
Wire Wire Line
	6750 4700 6750 4100
Connection ~ 6750 4100
Wire Wire Line
	6600 3200 7050 3200
Wire Wire Line
	7050 3200 7050 4700
Wire Wire Line
	6600 3100 6950 3100
Wire Wire Line
	6950 3100 6950 4700
Wire Wire Line
	6850 4700 6850 4300
Wire Wire Line
	6850 4300 8550 4300
Wire Wire Line
	8550 4300 8550 850 
Wire Wire Line
	6600 2350 6800 2350
Wire Wire Line
	6800 2350 6800 2500
Wire Wire Line
	6800 2500 9050 2500
Wire Wire Line
	6600 2450 6750 2450
Wire Wire Line
	6750 2450 6750 2550
Wire Wire Line
	6750 2550 9100 2550
Wire Wire Line
	6600 2550 6700 2550
Wire Wire Line
	6700 2550 6700 2600
Wire Wire Line
	6700 2600 9150 2600
Wire Wire Line
	6600 2650 9150 2650
$Comp
L CONN_01X04 P4
U 1 1 56E6607C
P 9350 2500
F 0 "P4" H 9350 2750 50  0000 C CNN
F 1 "Czujniki swiatla" V 9450 2500 50  0000 C CNN
F 2 "Pin_Headers:Pin_Header_Straight_1x04" H 9350 2500 50  0001 C CNN
F 3 "" H 9350 2500 50  0000 C CNN
	1    9350 2500
	1    0    0    -1  
$EndComp
Wire Wire Line
	9150 2600 9150 2550
Wire Wire Line
	9100 2550 9100 2450
Wire Wire Line
	9100 2450 9150 2450
Wire Wire Line
	9050 2500 9050 2350
Wire Wire Line
	9050 2350 9150 2350
Wire Wire Line
	6600 3300 9150 3300
Wire Wire Line
	6600 3400 9150 3400
Wire Wire Line
	6600 3500 9150 3500
Wire Wire Line
	6600 3600 9150 3600
$Comp
L CONN_01X04 P5
U 1 1 56E66A8B
P 9350 3450
F 0 "P5" H 9350 3700 50  0000 C CNN
F 1 "DHT11" V 9450 3450 50  0000 C CNN
F 2 "Pin_Headers:Pin_Header_Straight_1x04" H 9350 3450 50  0001 C CNN
F 3 "" H 9350 3450 50  0000 C CNN
	1    9350 3450
	1    0    0    -1  
$EndComp
Wire Wire Line
	6600 1500 6600 1150
Wire Wire Line
	6600 1600 6700 1600
Wire Wire Line
	6700 1600 6700 1250
Wire Wire Line
	2850 3700 4700 3700
Wire Wire Line
	4700 3800 4500 3800
Connection ~ 4500 3800
$Comp
L VCC #PWR05
U 1 1 56E6BCA7
P 1750 1600
F 0 "#PWR05" H 1750 1450 50  0001 C CNN
F 1 "VCC" H 1750 1750 50  0000 C CNN
F 2 "" H 1750 1600 50  0000 C CNN
F 3 "" H 1750 1600 50  0000 C CNN
	1    1750 1600
	0    1    1    0   
$EndComp
$Comp
L GND #PWR06
U 1 1 56E6BCF1
P 1750 1700
F 0 "#PWR06" H 1750 1450 50  0001 C CNN
F 1 "GND" H 1750 1550 50  0000 C CNN
F 2 "" H 1750 1700 50  0000 C CNN
F 3 "" H 1750 1700 50  0000 C CNN
	1    1750 1700
	1    0    0    -1  
$EndComp
Wire Wire Line
	4700 1800 4200 1800
Wire Wire Line
	4200 1800 4200 1650
$Comp
L CONN_01X02 P6
U 1 1 56E5F124
P 9300 1200
F 0 "P6" H 9300 1350 50  0000 C CNN
F 1 "Sterowanie LED" V 9400 1200 50  0000 C CNN
F 2 "Pin_Headers:Pin_Header_Straight_1x02" H 9300 1200 50  0001 C CNN
F 3 "" H 9300 1200 50  0000 C CNN
	1    9300 1200
	1    0    0    -1  
$EndComp
Wire Wire Line
	6600 1150 9100 1150
Wire Wire Line
	6700 1250 9100 1250
$Comp
L CONN_01X02 P8
U 1 1 56E7D931
P 7900 3800
F 0 "P8" H 7900 3950 50  0000 C CNN
F 1 "PRZYCISK2" V 8000 3800 50  0000 C CNN
F 2 "Pin_Headers:Pin_Header_Straight_1x02" H 7900 3800 50  0001 C CNN
F 3 "" H 7900 3800 50  0000 C CNN
	1    7900 3800
	0    -1   -1   0   
$EndComp
$Comp
L CONN_01X02 P7
U 1 1 56E7DF25
P 7400 3800
F 0 "P7" H 7400 3950 50  0000 C CNN
F 1 "PRZYCISK1" V 7500 3800 50  0000 C CNN
F 2 "Pin_Headers:Pin_Header_Straight_1x02" H 7400 3800 50  0001 C CNN
F 3 "" H 7400 3800 50  0000 C CNN
	1    7400 3800
	0    -1   -1   0   
$EndComp
Wire Wire Line
	7450 4000 7450 4100
Connection ~ 7450 4100
Wire Wire Line
	7950 4000 7950 4100
Connection ~ 7950 4100
Wire Wire Line
	7850 4000 7850 4050
Wire Wire Line
	7850 4050 6600 4050
Wire Wire Line
	6600 4050 6600 3800
Wire Wire Line
	7350 4000 6650 4000
Wire Wire Line
	6650 4000 6650 3700
Wire Wire Line
	6650 3700 6600 3700
Wire Wire Line
	6600 2100 7700 2100
$Comp
L C C4
U 1 1 56E7ED90
P 7850 2100
F 0 "C4" H 7875 2200 50  0000 L CNN
F 1 "100pF" H 7900 2000 50  0000 L CNN
F 2 "Capacitors_ThroughHole:C_Rect_L7_W4.5_P5" H 7888 1950 50  0001 C CNN
F 3 "" H 7850 2100 50  0000 C CNN
	1    7850 2100
	0    1    1    0   
$EndComp
$Comp
L C C5
U 1 1 56E7EDFF
P 7850 2450
F 0 "C5" H 7750 2550 50  0000 L CNN
F 1 "100pF" H 7550 2450 50  0000 L CNN
F 2 "Capacitors_ThroughHole:C_Rect_L7_W4.5_P5" H 7888 2300 50  0001 C CNN
F 3 "" H 7850 2450 50  0000 C CNN
	1    7850 2450
	0    1    1    0   
$EndComp
Wire Wire Line
	6950 2450 7700 2450
Wire Wire Line
	8000 2450 8350 2450
Wire Wire Line
	8000 2100 8350 2100
Connection ~ 8350 2100
$EndSCHEMATC
