(export (version D)
  (design
    (source "C:/Users/Robert Cieślewicz/Desktop/Sloiki_prostrze/Sloiki_prostrze.sch")
    (date "17.04.2016 15:20:06")
    (tool "Eeschema 4.0.2-stable")
    (sheet (number 1) (name /) (tstamps /)
      (title_block
        (title)
        (company)
        (rev)
        (date)
        (source Sloiki_prostrze.sch)
        (comment (number 1) (value ""))
        (comment (number 2) (value ""))
        (comment (number 3) (value ""))
        (comment (number 4) (value "")))))
  (components
    (comp (ref P1)
      (value 5V)
      (footprint Pin_Headers:Pin_Header_Straight_1x01)
      (libsource (lib conn) (part CONN_01X01))
      (sheetpath (names /) (tstamps /))
      (tstamp 56FF7E78))
    (comp (ref P2)
      (value DHT11)
      (footprint Pin_Headers:Pin_Header_Straight_1x01)
      (libsource (lib conn) (part CONN_01X01))
      (sheetpath (names /) (tstamps /))
      (tstamp 56FF7EB3))
    (comp (ref P3)
      (value FOT)
      (footprint Pin_Headers:Pin_Header_Straight_1x01)
      (libsource (lib conn) (part CONN_01X01))
      (sheetpath (names /) (tstamps /))
      (tstamp 56FF7EE4))
    (comp (ref P4)
      (value GND)
      (footprint Pin_Headers:Pin_Header_Straight_1x01)
      (libsource (lib conn) (part CONN_01X01))
      (sheetpath (names /) (tstamps /))
      (tstamp 56FF7F65))
    (comp (ref D1)
      (value LED)
      (footprint LEDs:LED-3MM)
      (libsource (lib device) (part LED))
      (sheetpath (names /) (tstamps /))
      (tstamp 56FF81D6))
    (comp (ref 10k1)
      (value R)
      (footprint Resistors_ThroughHole:Resistor_Horizontal_RM10mm)
      (libsource (lib device) (part R))
      (sheetpath (names /) (tstamps /))
      (tstamp 56FF8221))
    (comp (ref R1)
      (value 4,7k)
      (footprint Resistors_ThroughHole:Resistor_Horizontal_RM10mm)
      (libsource (lib device) (part R))
      (sheetpath (names /) (tstamps /))
      (tstamp 56FF8256))
    (comp (ref P5)
      (value DHT)
      (footprint Pin_Headers:Pin_Header_Straight_1x01)
      (libsource (lib conn) (part CONN_01X01))
      (sheetpath (names /) (tstamps /))
      (tstamp 5713911E))
    (comp (ref P6)
      (value DHT)
      (footprint Pin_Headers:Pin_Header_Straight_1x01)
      (libsource (lib conn) (part CONN_01X01))
      (sheetpath (names /) (tstamps /))
      (tstamp 571391C2))
    (comp (ref P7)
      (value DHT)
      (footprint Pin_Headers:Pin_Header_Straight_1x01)
      (libsource (lib conn) (part CONN_01X01))
      (sheetpath (names /) (tstamps /))
      (tstamp 571391FB)))
  (libparts
    (libpart (lib conn) (part CONN_01X01)
      (description "Connector 01x01")
      (footprints
        (fp Pin_Header_Straight_1X01)
        (fp Pin_Header_Angled_1X01)
        (fp Socket_Strip_Straight_1X01)
        (fp Socket_Strip_Angled_1X01))
      (fields
        (field (name Reference) P)
        (field (name Value) CONN_01X01))
      (pins
        (pin (num 1) (name P1) (type passive))))
    (libpart (lib device) (part LED)
      (footprints
        (fp LED-3MM)
        (fp LED-5MM)
        (fp LED-10MM)
        (fp LED-0603)
        (fp LED-0805)
        (fp LED-1206)
        (fp LEDV))
      (fields
        (field (name Reference) D)
        (field (name Value) LED))
      (pins
        (pin (num 1) (name K) (type passive))
        (pin (num 2) (name A) (type passive))))
    (libpart (lib device) (part R)
      (description Resistor)
      (footprints
        (fp R_*)
        (fp Resistor_*))
      (fields
        (field (name Reference) R)
        (field (name Value) R))
      (pins
        (pin (num 1) (name ~) (type passive))
        (pin (num 2) (name ~) (type passive)))))
  (libraries
    (library (logical device)
      (uri "C:\\Program Files\\KiCad\\share\\kicad\\library\\device.lib"))
    (library (logical conn)
      (uri "C:\\Program Files\\KiCad\\share\\kicad\\library\\conn.lib")))
  (nets
    (net (code 1) (name "Net-(10k1-Pad2)")
      (node (ref P3) (pin 1))
      (node (ref D1) (pin 2))
      (node (ref 10k1) (pin 2)))
    (net (code 4) (name "Net-(D1-Pad1)")
      (node (ref D1) (pin 1))
      (node (ref P4) (pin 1))
      (node (ref P7) (pin 1)))
    (net (code 5) (name "Net-(P2-Pad1)")
      (node (ref P6) (pin 1))
      (node (ref R1) (pin 1))
      (node (ref P2) (pin 1)))
    (net (code 6) (name "Net-(10k1-Pad1)")
      (node (ref 10k1) (pin 1))
      (node (ref R1) (pin 2))
      (node (ref P1) (pin 1))
      (node (ref P5) (pin 1)))))