(export (version D)
  (design
    (source "C:/Users/Robert Cieślewicz/Desktop/poprawione/arduino_poprawione.sch")
    (date "27.04.2016 16:53:55")
    (tool "Eeschema 4.0.2-stable")
    (sheet (number 1) (name /) (tstamps /)
      (title_block
        (title)
        (company)
        (rev)
        (date)
        (source arduino_poprawione.sch)
        (comment (number 1) (value ""))
        (comment (number 2) (value ""))
        (comment (number 3) (value ""))
        (comment (number 4) (value "")))))
  (components
    (comp (ref IC1)
      (value ATMEGA328-P)
      (footprint Housings_DIP:DIP-28_W7.62mm_LongPads)
      (libsource (lib atmel) (part ATMEGA328-P))
      (sheetpath (names /) (tstamps /))
      (tstamp 5720DB86))
    (comp (ref P3)
      (value FOT)
      (footprint Pin_Headers:Pin_Header_Straight_1x01)
      (libsource (lib conn) (part CONN_01X01))
      (sheetpath (names /) (tstamps /))
      (tstamp 5720E6BE))
    (comp (ref P4)
      (value FOT)
      (footprint Pin_Headers:Pin_Header_Straight_1x01)
      (libsource (lib conn) (part CONN_01X01))
      (sheetpath (names /) (tstamps /))
      (tstamp 5720E6FF))
    (comp (ref P9)
      (value MAX)
      (footprint Pin_Headers:Pin_Header_Straight_1x01)
      (libsource (lib conn) (part CONN_01X01))
      (sheetpath (names /) (tstamps /))
      (tstamp 5720E74A))
    (comp (ref P8)
      (value MAX)
      (footprint Pin_Headers:Pin_Header_Straight_1x01)
      (libsource (lib conn) (part CONN_01X01))
      (sheetpath (names /) (tstamps /))
      (tstamp 5720E777))
    (comp (ref P7)
      (value MAX)
      (footprint Pin_Headers:Pin_Header_Straight_1x01)
      (libsource (lib conn) (part CONN_01X01))
      (sheetpath (names /) (tstamps /))
      (tstamp 5720E7AE))
    (comp (ref P6)
      (value MAX)
      (footprint Pin_Headers:Pin_Header_Straight_1x01)
      (libsource (lib conn) (part CONN_01X01))
      (sheetpath (names /) (tstamps /))
      (tstamp 5720E7D1))
    (comp (ref P11)
      (value LED)
      (footprint Pin_Headers:Pin_Header_Straight_1x01)
      (libsource (lib conn) (part CONN_01X01))
      (sheetpath (names /) (tstamps /))
      (tstamp 5720EA5E))
    (comp (ref P12)
      (value LED)
      (footprint Pin_Headers:Pin_Header_Straight_1x01)
      (libsource (lib conn) (part CONN_01X01))
      (sheetpath (names /) (tstamps /))
      (tstamp 5720EAE3))
    (comp (ref P13)
      (value LED)
      (footprint Pin_Headers:Pin_Header_Straight_1x01)
      (libsource (lib conn) (part CONN_01X01))
      (sheetpath (names /) (tstamps /))
      (tstamp 5720EB10))
    (comp (ref Y1)
      (value 16MHz)
      (footprint Crystals:HC-49V)
      (libsource (lib device) (part Crystal_Small))
      (sheetpath (names /) (tstamps /))
      (tstamp 5720F590))
    (comp (ref C1)
      (value 100nF)
      (footprint Capacitors_ThroughHole:C_Disc_D3_P2.5)
      (libsource (lib device) (part C))
      (sheetpath (names /) (tstamps /))
      (tstamp 5720FB64))
    (comp (ref C2)
      (value 100nF)
      (footprint Capacitors_ThroughHole:C_Disc_D3_P2.5)
      (libsource (lib device) (part C))
      (sheetpath (names /) (tstamps /))
      (tstamp 5720FBC9))
    (comp (ref 10k1)
      (value R)
      (footprint Resistors_ThroughHole:Resistor_Horizontal_RM10mm)
      (libsource (lib device) (part R))
      (sheetpath (names /) (tstamps /))
      (tstamp 57210800))
    (comp (ref P5)
      (value +5V)
      (footprint Pin_Headers:Pin_Header_Straight_1x01)
      (libsource (lib conn) (part CONN_01X01))
      (sheetpath (names /) (tstamps /))
      (tstamp 57211F17))
    (comp (ref P10)
      (value GND)
      (footprint Pin_Headers:Pin_Header_Straight_1x01)
      (libsource (lib conn) (part CONN_01X01))
      (sheetpath (names /) (tstamps /))
      (tstamp 57211F96))
    (comp (ref C3)
      (value 100nF)
      (footprint Capacitors_ThroughHole:C_Disc_D3_P2.5)
      (libsource (lib device) (part C))
      (sheetpath (names /) (tstamps /))
      (tstamp 572122CB))
    (comp (ref P1)
      (value DHT)
      (footprint Pin_Headers:Pin_Header_Straight_1x01)
      (libsource (lib conn) (part CONN_01X01))
      (sheetpath (names /) (tstamps /))
      (tstamp 572140E2))
    (comp (ref P2)
      (value DHT)
      (footprint Pin_Headers:Pin_Header_Straight_1x01)
      (libsource (lib conn) (part CONN_01X01))
      (sheetpath (names /) (tstamps /))
      (tstamp 57214135)))
  (libparts
    (libpart (lib atmel) (part ATMEGA168A-P)
      (aliases
        (alias ATMEGA48A-P)
        (alias ATMEGA48PA-P)
        (alias ATMEGA88A-P)
        (alias ATMEGA88PA-P)
        (alias ATMEGA168PA-P)
        (alias ATMEGA328-P)
        (alias ATMEGA328P-P))
      (description "PDIP28 Narrow, 16k Flash, 1kB SRAM, 512B EEPROM")
      (docs http://www.atmel.com/images/atmel-8271-8-bit-avr-microcontroller-atmega48a-48pa-88a-88pa-168a-168pa-328-328p_datasheet.pdf)
      (footprints
        (fp 28DIP-ELL600)
        (fp 28dip600))
      (fields
        (field (name Reference) IC)
        (field (name Value) ATMEGA168A-P)
        (field (name Footprint) DIL28))
      (pins
        (pin (num 1) (name "(PCINT14/~RESET~)PC6") (type BiDi))
        (pin (num 2) (name "(PCINT16/RXD)PD0") (type BiDi))
        (pin (num 3) (name "(PCINT17/TXD)PD1") (type BiDi))
        (pin (num 4) (name "(PCINT18/INT0)PD2") (type BiDi))
        (pin (num 5) (name "(PCINT19/OC2B/INT1)PD3") (type BiDi))
        (pin (num 6) (name "(PCINT20/XCK/T0)PD4") (type BiDi))
        (pin (num 7) (name VCC) (type power_in))
        (pin (num 8) (name GND) (type power_in))
        (pin (num 9) (name "(PCINT6/XTAL1/TOSC1)PB6") (type BiDi))
        (pin (num 10) (name "(PCINT7/XTAL2/TOSC2)PB7") (type BiDi))
        (pin (num 11) (name "(PCINT21/OC0B/T1)PD5") (type BiDi))
        (pin (num 12) (name "(PCINT22/OC0A/AIN0)PD6") (type BiDi))
        (pin (num 13) (name "(PCINT23/AIN1)PD7") (type BiDi))
        (pin (num 14) (name "(PCINT0/CLKO/ICP1)PB0") (type BiDi))
        (pin (num 15) (name "(PCINT1/OC1A)PB1") (type BiDi))
        (pin (num 16) (name "(PCINT2/OC1B/~SS~)PB2") (type BiDi))
        (pin (num 17) (name "(PCINT3/OC2A/MOSI)PB3") (type BiDi))
        (pin (num 18) (name "(PCINT4/MISO)PB4") (type BiDi))
        (pin (num 19) (name "(PCINT5/SCK)PB5") (type BiDi))
        (pin (num 20) (name AVCC) (type power_in))
        (pin (num 21) (name AREF) (type BiDi))
        (pin (num 22) (name GND) (type power_in))
        (pin (num 23) (name "(PCINT8/ADC0)PC0") (type BiDi))
        (pin (num 24) (name "(PCINT9/ADC1)PC1") (type BiDi))
        (pin (num 25) (name "(PCINT10/ADC2)PC2") (type BiDi))
        (pin (num 26) (name "(PCINT11/ADC3)PC3") (type BiDi))
        (pin (num 27) (name "(PCINT12/SDA/ADC4)PC4") (type BiDi))
        (pin (num 28) (name "(PCINT13/SCL/ADC5)PC5") (type BiDi))))
    (libpart (lib device) (part C)
      (description "Unpolarized capacitor")
      (footprints
        (fp C?)
        (fp C_????_*)
        (fp C_????)
        (fp SMD*_c)
        (fp Capacitor*))
      (fields
        (field (name Reference) C)
        (field (name Value) C))
      (pins
        (pin (num 1) (name ~) (type passive))
        (pin (num 2) (name ~) (type passive))))
    (libpart (lib conn) (part CONN_01X01)
      (description "Connector 01x01")
      (footprints
        (fp Pin_Header_Straight_1X01)
        (fp Pin_Header_Angled_1X01)
        (fp Socket_Strip_Straight_1X01)
        (fp Socket_Strip_Angled_1X01))
      (fields
        (field (name Reference) P)
        (field (name Value) CONN_01X01))
      (pins
        (pin (num 1) (name P1) (type passive))))
    (libpart (lib device) (part Crystal_Small)
      (description "Two pin crystal")
      (footprints
        (fp Crystal_))
      (fields
        (field (name Reference) Y)
        (field (name Value) Crystal_Small))
      (pins
        (pin (num 1) (name 1) (type passive))
        (pin (num 2) (name 2) (type passive))))
    (libpart (lib device) (part R)
      (description Resistor)
      (footprints
        (fp R_*)
        (fp Resistor_*))
      (fields
        (field (name Reference) R)
        (field (name Value) R))
      (pins
        (pin (num 1) (name ~) (type passive))
        (pin (num 2) (name ~) (type passive)))))
  (libraries
    (library (logical device)
      (uri "C:\\Program Files\\KiCad\\share\\kicad\\library\\device.lib"))
    (library (logical atmel)
      (uri "C:\\Program Files\\KiCad\\share\\kicad\\library\\atmel.lib"))
    (library (logical conn)
      (uri "C:\\Program Files\\KiCad\\share\\kicad\\library\\conn.lib")))
  (nets
    (net (code 1) (name "Net-(10k1-Pad2)")
      (node (ref IC1) (pin 1))
      (node (ref 10k1) (pin 2)))
    (net (code 2) (name "Net-(IC1-Pad16)")
      (node (ref P2) (pin 1))
      (node (ref IC1) (pin 16)))
    (net (code 3) (name "Net-(IC1-Pad15)")
      (node (ref P1) (pin 1))
      (node (ref IC1) (pin 15)))
    (net (code 4) (name "Net-(IC1-Pad4)")
      (node (ref IC1) (pin 4))
      (node (ref P12) (pin 1)))
    (net (code 5) (name "Net-(IC1-Pad3)")
      (node (ref P8) (pin 1))
      (node (ref IC1) (pin 3)))
    (net (code 6) (name "Net-(IC1-Pad2)")
      (node (ref IC1) (pin 2))
      (node (ref P7) (pin 1)))
    (net (code 7) (name "Net-(10k1-Pad1)")
      (node (ref IC1) (pin 7))
      (node (ref IC1) (pin 20))
      (node (ref C3) (pin 2))
      (node (ref P13) (pin 1))
      (node (ref P5) (pin 1))
      (node (ref P9) (pin 1))
      (node (ref 10k1) (pin 1)))
    (net (code 8) (name "Net-(IC1-Pad17)")
      (node (ref IC1) (pin 17)))
    (net (code 9) (name "Net-(IC1-Pad26)")
      (node (ref IC1) (pin 26)))
    (net (code 10) (name "Net-(IC1-Pad25)")
      (node (ref IC1) (pin 25)))
    (net (code 11) (name "Net-(IC1-Pad14)")
      (node (ref IC1) (pin 14)))
    (net (code 12) (name "Net-(IC1-Pad13)")
      (node (ref IC1) (pin 13)))
    (net (code 13) (name "Net-(IC1-Pad12)")
      (node (ref IC1) (pin 12)))
    (net (code 14) (name "Net-(IC1-Pad21)")
      (node (ref IC1) (pin 21)))
    (net (code 15) (name "Net-(IC1-Pad11)")
      (node (ref IC1) (pin 11)))
    (net (code 16) (name "Net-(IC1-Pad27)")
      (node (ref IC1) (pin 27)))
    (net (code 17) (name "Net-(C1-Pad2)")
      (node (ref Y1) (pin 2))
      (node (ref IC1) (pin 9))
      (node (ref C1) (pin 2)))
    (net (code 18) (name "Net-(IC1-Pad6)")
      (node (ref IC1) (pin 6)))
    (net (code 19) (name "Net-(IC1-Pad5)")
      (node (ref IC1) (pin 5)))
    (net (code 22) (name "Net-(C2-Pad2)")
      (node (ref IC1) (pin 10))
      (node (ref C2) (pin 2))
      (node (ref Y1) (pin 1)))
    (net (code 23) (name "Net-(C1-Pad1)")
      (node (ref C1) (pin 1))
      (node (ref C2) (pin 1))
      (node (ref P11) (pin 1))
      (node (ref P6) (pin 1))
      (node (ref IC1) (pin 22))
      (node (ref C3) (pin 1))
      (node (ref P10) (pin 1))
      (node (ref IC1) (pin 8)))
    (net (code 24) (name "Net-(IC1-Pad24)")
      (node (ref IC1) (pin 24))
      (node (ref P4) (pin 1)))
    (net (code 25) (name "Net-(IC1-Pad23)")
      (node (ref P3) (pin 1))
      (node (ref IC1) (pin 23)))
    (net (code 26) (name "Net-(IC1-Pad19)")
      (node (ref IC1) (pin 19)))
    (net (code 27) (name "Net-(IC1-Pad28)")
      (node (ref IC1) (pin 28)))
    (net (code 28) (name "Net-(IC1-Pad18)")
      (node (ref IC1) (pin 18)))))