EESchema Schematic File Version 2
LIBS:power
LIBS:device
LIBS:transistors
LIBS:conn
LIBS:linear
LIBS:regul
LIBS:74xx
LIBS:cmos4000
LIBS:adc-dac
LIBS:memory
LIBS:xilinx
LIBS:microcontrollers
LIBS:dsp
LIBS:microchip
LIBS:analog_switches
LIBS:motorola
LIBS:texas
LIBS:intel
LIBS:audio
LIBS:interface
LIBS:digital-audio
LIBS:philips
LIBS:display
LIBS:cypress
LIBS:siliconi
LIBS:opto
LIBS:atmel
LIBS:contrib
LIBS:valves
LIBS:arduino_poprawione-cache
EELAYER 25 0
EELAYER END
$Descr A4 11693 8268
encoding utf-8
Sheet 1 1
Title ""
Date ""
Rev ""
Comp ""
Comment1 ""
Comment2 ""
Comment3 ""
Comment4 ""
$EndDescr
$Comp
L GND #PWR01
U 1 1 5720DB09
P 10950 6250
F 0 "#PWR01" H 10950 6000 50  0001 C CNN
F 1 "GND" H 10950 6100 50  0000 C CNN
F 2 "" H 10950 6250 50  0000 C CNN
F 3 "" H 10950 6250 50  0000 C CNN
	1    10950 6250
	1    0    0    -1  
$EndComp
$Comp
L VCC #PWR02
U 1 1 5720DB1D
P 10600 6200
F 0 "#PWR02" H 10600 6050 50  0001 C CNN
F 1 "VCC" H 10600 6350 50  0000 C CNN
F 2 "" H 10600 6200 50  0000 C CNN
F 3 "" H 10600 6200 50  0000 C CNN
	1    10600 6200
	1    0    0    -1  
$EndComp
$Comp
L PWR_FLAG #FLG03
U 1 1 5720DB31
P 10950 6250
F 0 "#FLG03" H 10950 6345 50  0001 C CNN
F 1 "PWR_FLAG" H 10950 6430 50  0000 C CNN
F 2 "" H 10950 6250 50  0000 C CNN
F 3 "" H 10950 6250 50  0000 C CNN
	1    10950 6250
	1    0    0    -1  
$EndComp
$Comp
L PWR_FLAG #FLG04
U 1 1 5720DB45
P 10600 6200
F 0 "#FLG04" H 10600 6295 50  0001 C CNN
F 1 "PWR_FLAG" H 10600 6380 50  0000 C CNN
F 2 "" H 10600 6200 50  0000 C CNN
F 3 "" H 10600 6200 50  0000 C CNN
	1    10600 6200
	-1   0    0    1   
$EndComp
$Comp
L ATMEGA328-P IC1
U 1 1 5720DB86
P 6050 3150
F 0 "IC1" H 5300 4400 50  0000 L BNN
F 1 "ATMEGA328-P" H 6450 1750 50  0000 L BNN
F 2 "Housings_DIP:DIP-28_W7.62mm_LongPads" H 6050 3150 50  0000 C CIN
F 3 "" H 6050 3150 50  0000 C CNN
	1    6050 3150
	1    0    0    -1  
$EndComp
Wire Wire Line
	7250 2900 7050 2900
Wire Wire Line
	7050 3000 7250 3000
$Comp
L CONN_01X01 P3
U 1 1 5720E6BE
P 7450 2900
F 0 "P3" H 7450 3000 50  0000 C CNN
F 1 "FOT" V 7550 2900 50  0000 C CNN
F 2 "Pin_Headers:Pin_Header_Straight_1x01" H 7450 2900 50  0001 C CNN
F 3 "" H 7450 2900 50  0000 C CNN
	1    7450 2900
	1    0    0    -1  
$EndComp
$Comp
L CONN_01X01 P4
U 1 1 5720E6FF
P 7450 3000
F 0 "P4" H 7450 3100 50  0000 C CNN
F 1 "FOT" V 7550 3000 50  0000 C CNN
F 2 "Pin_Headers:Pin_Header_Straight_1x01" H 7450 3000 50  0001 C CNN
F 3 "" H 7450 3000 50  0000 C CNN
	1    7450 3000
	1    0    0    -1  
$EndComp
$Comp
L CONN_01X01 P9
U 1 1 5720E74A
P 8000 5400
F 0 "P9" H 8000 5500 50  0000 C CNN
F 1 "MAX" V 8100 5400 50  0000 C CNN
F 2 "Pin_Headers:Pin_Header_Straight_1x01" H 8000 5400 50  0001 C CNN
F 3 "" H 8000 5400 50  0000 C CNN
	1    8000 5400
	1    0    0    -1  
$EndComp
$Comp
L CONN_01X01 P8
U 1 1 5720E777
P 8000 5250
F 0 "P8" H 8000 5350 50  0000 C CNN
F 1 "MAX" V 8100 5250 50  0000 C CNN
F 2 "Pin_Headers:Pin_Header_Straight_1x01" H 8000 5250 50  0001 C CNN
F 3 "" H 8000 5250 50  0000 C CNN
	1    8000 5250
	1    0    0    -1  
$EndComp
$Comp
L CONN_01X01 P7
U 1 1 5720E7AE
P 8000 5100
F 0 "P7" H 8000 5200 50  0000 C CNN
F 1 "MAX" V 8100 5100 50  0000 C CNN
F 2 "Pin_Headers:Pin_Header_Straight_1x01" H 8000 5100 50  0001 C CNN
F 3 "" H 8000 5100 50  0000 C CNN
	1    8000 5100
	1    0    0    -1  
$EndComp
$Comp
L CONN_01X01 P6
U 1 1 5720E7D1
P 8000 4950
F 0 "P6" H 8000 5050 50  0000 C CNN
F 1 "MAX" V 8100 4950 50  0000 C CNN
F 2 "Pin_Headers:Pin_Header_Straight_1x01" H 8000 4950 50  0001 C CNN
F 3 "" H 8000 4950 50  0000 C CNN
	1    8000 4950
	1    0    0    -1  
$EndComp
$Comp
L CONN_01X01 P11
U 1 1 5720EA5E
P 8550 3850
F 0 "P11" H 8550 3950 50  0000 C CNN
F 1 "LED" V 8650 3850 50  0000 C CNN
F 2 "Pin_Headers:Pin_Header_Straight_1x01" H 8550 3850 50  0001 C CNN
F 3 "" H 8550 3850 50  0000 C CNN
	1    8550 3850
	1    0    0    -1  
$EndComp
$Comp
L CONN_01X01 P12
U 1 1 5720EAE3
P 8550 4000
F 0 "P12" H 8550 4100 50  0000 C CNN
F 1 "LED" V 8650 4000 50  0000 C CNN
F 2 "Pin_Headers:Pin_Header_Straight_1x01" H 8550 4000 50  0001 C CNN
F 3 "" H 8550 4000 50  0000 C CNN
	1    8550 4000
	1    0    0    -1  
$EndComp
$Comp
L CONN_01X01 P13
U 1 1 5720EB10
P 8550 4150
F 0 "P13" H 8550 4250 50  0000 C CNN
F 1 "LED" V 8650 4150 50  0000 C CNN
F 2 "Pin_Headers:Pin_Header_Straight_1x01" H 8550 4150 50  0001 C CNN
F 3 "" H 8550 4150 50  0000 C CNN
	1    8550 4150
	1    0    0    -1  
$EndComp
$Comp
L Crystal_Small Y1
U 1 1 5720F590
P 7550 2550
F 0 "Y1" H 7550 2650 50  0000 C CNN
F 1 "16MHz" H 7550 2450 50  0000 C CNN
F 2 "Crystals:HC-49V" H 7550 2550 50  0001 C CNN
F 3 "" H 7550 2550 50  0000 C CNN
	1    7550 2550
	0    -1   -1   0   
$EndComp
$Comp
L C C1
U 1 1 5720FB64
P 7700 2450
F 0 "C1" H 7725 2550 50  0000 L CNN
F 1 "100nF" H 7725 2350 50  0000 L CNN
F 2 "Capacitors_ThroughHole:C_Disc_D3_P2.5" H 7738 2300 50  0001 C CNN
F 3 "" H 7700 2450 50  0000 C CNN
	1    7700 2450
	0    1    1    0   
$EndComp
$Comp
L C C2
U 1 1 5720FBC9
P 7700 2650
F 0 "C2" H 7725 2750 50  0000 L CNN
F 1 "100nF" H 7725 2550 50  0000 L CNN
F 2 "Capacitors_ThroughHole:C_Disc_D3_P2.5" H 7738 2500 50  0001 C CNN
F 3 "" H 7700 2650 50  0000 C CNN
	1    7700 2650
	0    1    1    0   
$EndComp
Wire Wire Line
	7550 2450 7250 2450
Wire Wire Line
	7250 2450 7250 2650
Wire Wire Line
	7250 2650 7050 2650
Wire Wire Line
	7050 2750 7350 2750
Wire Wire Line
	7350 2750 7350 2650
Wire Wire Line
	7350 2650 7550 2650
Wire Wire Line
	7850 2450 8100 2450
Wire Wire Line
	8100 2450 8100 2650
Wire Wire Line
	8100 2650 7850 2650
Wire Wire Line
	8400 2550 8100 2550
Connection ~ 8100 2550
Wire Wire Line
	7050 3500 8600 3500
Wire Wire Line
	8600 3500 8600 1950
$Comp
L R 10k1
U 1 1 57210800
P 8600 1800
F 0 "10k1" V 8680 1800 50  0000 C CNN
F 1 "R" V 8600 1800 50  0000 C CNN
F 2 "Resistors_ThroughHole:Resistor_Horizontal_RM10mm" V 8530 1800 50  0001 C CNN
F 3 "" H 8600 1800 50  0000 C CNN
	1    8600 1800
	1    0    0    -1  
$EndComp
Wire Wire Line
	5150 2350 4850 2350
Wire Wire Line
	4850 2350 4850 1650
Wire Wire Line
	4850 1650 8600 1650
Wire Wire Line
	5150 2050 5150 1650
Connection ~ 5150 1650
$Comp
L CONN_01X01 P5
U 1 1 57211F17
P 8000 1150
F 0 "P5" H 8000 1250 50  0000 C CNN
F 1 "+5V" V 8100 1150 50  0000 C CNN
F 2 "Pin_Headers:Pin_Header_Straight_1x01" H 8000 1150 50  0001 C CNN
F 3 "" H 8000 1150 50  0000 C CNN
	1    8000 1150
	0    -1   -1   0   
$EndComp
$Comp
L CONN_01X01 P10
U 1 1 57211F96
P 8500 1150
F 0 "P10" H 8500 1250 50  0000 C CNN
F 1 "GND" V 8600 1150 50  0000 C CNN
F 2 "Pin_Headers:Pin_Header_Straight_1x01" H 8500 1150 50  0001 C CNN
F 3 "" H 8500 1150 50  0000 C CNN
	1    8500 1150
	0    -1   -1   0   
$EndComp
Wire Wire Line
	8500 1350 8400 1350
Wire Wire Line
	8000 1350 8000 1900
Connection ~ 8000 1650
$Comp
L C C3
U 1 1 572122CB
P 8250 1900
F 0 "C3" H 8275 2000 50  0000 L CNN
F 1 "100nF" H 8275 1800 50  0000 L CNN
F 2 "Capacitors_ThroughHole:C_Disc_D3_P2.5" H 8288 1750 50  0001 C CNN
F 3 "" H 8250 1900 50  0000 C CNN
	1    8250 1900
	0    1    1    0   
$EndComp
Wire Wire Line
	8400 1350 8400 2550
Connection ~ 8400 1900
Wire Wire Line
	8000 1900 8100 1900
Wire Wire Line
	5150 3300 5150 4350
Wire Wire Line
	5150 3300 4450 3300
Wire Wire Line
	4450 3300 4450 1450
Wire Wire Line
	4450 1450 7550 1450
Wire Wire Line
	7550 1450 7550 2250
Wire Wire Line
	7550 2250 8400 2250
Connection ~ 8400 2250
Connection ~ 5150 4250
Wire Wire Line
	8400 1550 9050 1550
Wire Wire Line
	9050 1550 9050 4500
Wire Wire Line
	9050 3650 8350 3650
Wire Wire Line
	8350 3650 8350 3850
Connection ~ 8400 1550
Wire Wire Line
	7800 4950 7800 4500
Wire Wire Line
	7800 4500 9050 4500
Connection ~ 9050 3650
Wire Wire Line
	8000 1450 8250 1450
Wire Wire Line
	8250 1450 8250 950 
Wire Wire Line
	8250 950  9200 950 
Wire Wire Line
	9200 950  9200 5650
Wire Wire Line
	9200 5650 7800 5650
Wire Wire Line
	7800 5650 7800 5400
Connection ~ 8000 1450
Wire Wire Line
	8350 4150 8350 4300
Wire Wire Line
	8350 4300 9200 4300
Connection ~ 9200 4300
Wire Wire Line
	7050 3650 7600 3650
Wire Wire Line
	7600 3650 7600 5100
Wire Wire Line
	7600 5100 7800 5100
Wire Wire Line
	7050 3750 7500 3750
Wire Wire Line
	7500 3750 7500 5250
Wire Wire Line
	7500 5250 7800 5250
Wire Wire Line
	8350 4000 7300 4000
Wire Wire Line
	7300 4000 7300 3850
Wire Wire Line
	7300 3850 7050 3850
$Comp
L CONN_01X01 P1
U 1 1 572140E2
P 7400 2100
F 0 "P1" H 7400 2200 50  0000 C CNN
F 1 "DHT" V 7500 2100 50  0000 C CNN
F 2 "Pin_Headers:Pin_Header_Straight_1x01" H 7400 2100 50  0001 C CNN
F 3 "" H 7400 2100 50  0000 C CNN
	1    7400 2100
	1    0    0    -1  
$EndComp
$Comp
L CONN_01X01 P2
U 1 1 57214135
P 7400 2250
F 0 "P2" H 7400 2350 50  0000 C CNN
F 1 "DHT" V 7500 2250 50  0000 C CNN
F 2 "Pin_Headers:Pin_Header_Straight_1x01" H 7400 2250 50  0001 C CNN
F 3 "" H 7400 2250 50  0000 C CNN
	1    7400 2250
	1    0    0    -1  
$EndComp
Wire Wire Line
	7200 2150 7200 2100
Wire Wire Line
	7050 2150 7200 2150
Wire Wire Line
	7200 2250 7050 2250
$EndSCHEMATC
