(kicad_pcb (version 4) (host pcbnew 4.0.2-stable)

  (general
    (links 25)
    (no_connects 0)
    (area 67.31 50.8 185.42 147.32)
    (thickness 1.6)
    (drawings 0)
    (tracks 55)
    (zones 0)
    (modules 19)
    (nets 27)
  )

  (page A4)
  (layers
    (0 F.Cu signal)
    (31 B.Cu signal)
    (32 B.Adhes user)
    (33 F.Adhes user)
    (34 B.Paste user)
    (35 F.Paste user)
    (36 B.SilkS user)
    (37 F.SilkS user)
    (38 B.Mask user)
    (39 F.Mask user)
    (40 Dwgs.User user)
    (41 Cmts.User user)
    (42 Eco1.User user)
    (43 Eco2.User user)
    (44 Edge.Cuts user)
    (45 Margin user)
    (46 B.CrtYd user)
    (47 F.CrtYd user)
    (48 B.Fab user)
    (49 F.Fab user)
  )

  (setup
    (last_trace_width 0.25)
    (trace_clearance 0.2)
    (zone_clearance 0.508)
    (zone_45_only no)
    (trace_min 0.2)
    (segment_width 0.2)
    (edge_width 0.15)
    (via_size 0.6)
    (via_drill 0.4)
    (via_min_size 0.4)
    (via_min_drill 0.3)
    (uvia_size 0.3)
    (uvia_drill 0.1)
    (uvias_allowed no)
    (uvia_min_size 0.2)
    (uvia_min_drill 0.1)
    (pcb_text_width 0.3)
    (pcb_text_size 1.5 1.5)
    (mod_edge_width 0.15)
    (mod_text_size 1 1)
    (mod_text_width 0.15)
    (pad_size 1.524 1.524)
    (pad_drill 0.762)
    (pad_to_mask_clearance 0.2)
    (aux_axis_origin 0 0)
    (visible_elements 7FFFFFFF)
    (pcbplotparams
      (layerselection 0x00030_80000001)
      (usegerberextensions false)
      (excludeedgelayer true)
      (linewidth 0.100000)
      (plotframeref false)
      (viasonmask false)
      (mode 1)
      (useauxorigin false)
      (hpglpennumber 1)
      (hpglpenspeed 20)
      (hpglpendiameter 15)
      (hpglpenoverlay 2)
      (psnegative false)
      (psa4output false)
      (plotreference true)
      (plotvalue true)
      (plotinvisibletext false)
      (padsonsilk false)
      (subtractmaskfromsilk false)
      (outputformat 1)
      (mirror false)
      (drillshape 1)
      (scaleselection 1)
      (outputdirectory ""))
  )

  (net 0 "")
  (net 1 "Net-(10k1-Pad1)")
  (net 2 "Net-(10k1-Pad2)")
  (net 3 "Net-(C1-Pad1)")
  (net 4 "Net-(C1-Pad2)")
  (net 5 "Net-(C2-Pad2)")
  (net 6 "Net-(IC1-Pad2)")
  (net 7 "Net-(IC1-Pad3)")
  (net 8 "Net-(IC1-Pad4)")
  (net 9 "Net-(IC1-Pad5)")
  (net 10 "Net-(IC1-Pad6)")
  (net 11 "Net-(IC1-Pad11)")
  (net 12 "Net-(IC1-Pad12)")
  (net 13 "Net-(IC1-Pad13)")
  (net 14 "Net-(IC1-Pad14)")
  (net 15 "Net-(IC1-Pad15)")
  (net 16 "Net-(IC1-Pad16)")
  (net 17 "Net-(IC1-Pad17)")
  (net 18 "Net-(IC1-Pad18)")
  (net 19 "Net-(IC1-Pad19)")
  (net 20 "Net-(IC1-Pad21)")
  (net 21 "Net-(IC1-Pad23)")
  (net 22 "Net-(IC1-Pad24)")
  (net 23 "Net-(IC1-Pad25)")
  (net 24 "Net-(IC1-Pad26)")
  (net 25 "Net-(IC1-Pad27)")
  (net 26 "Net-(IC1-Pad28)")

  (net_class Default "To jest domyślna klasa połączeń."
    (clearance 0.2)
    (trace_width 0.25)
    (via_dia 0.6)
    (via_drill 0.4)
    (uvia_dia 0.3)
    (uvia_drill 0.1)
    (add_net "Net-(10k1-Pad1)")
    (add_net "Net-(10k1-Pad2)")
    (add_net "Net-(C1-Pad1)")
    (add_net "Net-(C1-Pad2)")
    (add_net "Net-(C2-Pad2)")
    (add_net "Net-(IC1-Pad11)")
    (add_net "Net-(IC1-Pad12)")
    (add_net "Net-(IC1-Pad13)")
    (add_net "Net-(IC1-Pad14)")
    (add_net "Net-(IC1-Pad15)")
    (add_net "Net-(IC1-Pad16)")
    (add_net "Net-(IC1-Pad17)")
    (add_net "Net-(IC1-Pad18)")
    (add_net "Net-(IC1-Pad19)")
    (add_net "Net-(IC1-Pad2)")
    (add_net "Net-(IC1-Pad21)")
    (add_net "Net-(IC1-Pad23)")
    (add_net "Net-(IC1-Pad24)")
    (add_net "Net-(IC1-Pad25)")
    (add_net "Net-(IC1-Pad26)")
    (add_net "Net-(IC1-Pad27)")
    (add_net "Net-(IC1-Pad28)")
    (add_net "Net-(IC1-Pad3)")
    (add_net "Net-(IC1-Pad4)")
    (add_net "Net-(IC1-Pad5)")
    (add_net "Net-(IC1-Pad6)")
  )

  (module Resistors_ThroughHole:Resistor_Horizontal_RM10mm placed (layer F.Cu) (tedit 56648415) (tstamp 5720D630)
    (at 111.76 72.39)
    (descr "Resistor, Axial,  RM 10mm, 1/3W")
    (tags "Resistor Axial RM 10mm 1/3W")
    (path /57210800)
    (fp_text reference 10k1 (at 5.32892 -3.50012) (layer F.SilkS)
      (effects (font (size 1 1) (thickness 0.15)))
    )
    (fp_text value R (at 5.08 3.81) (layer F.Fab)
      (effects (font (size 1 1) (thickness 0.15)))
    )
    (fp_line (start -1.25 -1.5) (end 11.4 -1.5) (layer F.CrtYd) (width 0.05))
    (fp_line (start -1.25 1.5) (end -1.25 -1.5) (layer F.CrtYd) (width 0.05))
    (fp_line (start 11.4 -1.5) (end 11.4 1.5) (layer F.CrtYd) (width 0.05))
    (fp_line (start -1.25 1.5) (end 11.4 1.5) (layer F.CrtYd) (width 0.05))
    (fp_line (start 2.54 -1.27) (end 7.62 -1.27) (layer F.SilkS) (width 0.15))
    (fp_line (start 7.62 -1.27) (end 7.62 1.27) (layer F.SilkS) (width 0.15))
    (fp_line (start 7.62 1.27) (end 2.54 1.27) (layer F.SilkS) (width 0.15))
    (fp_line (start 2.54 1.27) (end 2.54 -1.27) (layer F.SilkS) (width 0.15))
    (fp_line (start 2.54 0) (end 1.27 0) (layer F.SilkS) (width 0.15))
    (fp_line (start 7.62 0) (end 8.89 0) (layer F.SilkS) (width 0.15))
    (pad 1 thru_hole circle (at 0 0) (size 1.99898 1.99898) (drill 1.00076) (layers *.Cu *.SilkS *.Mask)
      (net 1 "Net-(10k1-Pad1)"))
    (pad 2 thru_hole circle (at 10.16 0) (size 1.99898 1.99898) (drill 1.00076) (layers *.Cu *.SilkS *.Mask)
      (net 2 "Net-(10k1-Pad2)"))
    (model Resistors_ThroughHole.3dshapes/Resistor_Horizontal_RM10mm.wrl
      (at (xyz 0.2 0 0))
      (scale (xyz 0.4 0.4 0.4))
      (rotate (xyz 0 0 0))
    )
  )

  (module Capacitors_ThroughHole:C_Disc_D3_P2.5 placed (layer F.Cu) (tedit 0) (tstamp 5720D636)
    (at 107.95 88.9 270)
    (descr "Capacitor 3mm Disc, Pitch 2.5mm")
    (tags Capacitor)
    (path /5720FB64)
    (fp_text reference C1 (at 1.25 -2.5 270) (layer F.SilkS)
      (effects (font (size 1 1) (thickness 0.15)))
    )
    (fp_text value 100nF (at 1.25 2.5 270) (layer F.Fab)
      (effects (font (size 1 1) (thickness 0.15)))
    )
    (fp_line (start -0.9 -1.5) (end 3.4 -1.5) (layer F.CrtYd) (width 0.05))
    (fp_line (start 3.4 -1.5) (end 3.4 1.5) (layer F.CrtYd) (width 0.05))
    (fp_line (start 3.4 1.5) (end -0.9 1.5) (layer F.CrtYd) (width 0.05))
    (fp_line (start -0.9 1.5) (end -0.9 -1.5) (layer F.CrtYd) (width 0.05))
    (fp_line (start -0.25 -1.25) (end 2.75 -1.25) (layer F.SilkS) (width 0.15))
    (fp_line (start 2.75 1.25) (end -0.25 1.25) (layer F.SilkS) (width 0.15))
    (pad 1 thru_hole rect (at 0 0 270) (size 1.3 1.3) (drill 0.8) (layers *.Cu *.Mask F.SilkS)
      (net 3 "Net-(C1-Pad1)"))
    (pad 2 thru_hole circle (at 2.5 0 270) (size 1.3 1.3) (drill 0.8001) (layers *.Cu *.Mask F.SilkS)
      (net 4 "Net-(C1-Pad2)"))
    (model Capacitors_ThroughHole.3dshapes/C_Disc_D3_P2.5.wrl
      (at (xyz 0.0492126 0 0))
      (scale (xyz 1 1 1))
      (rotate (xyz 0 0 0))
    )
  )

  (module Capacitors_ThroughHole:C_Disc_D3_P2.5 placed (layer F.Cu) (tedit 0) (tstamp 5720D63C)
    (at 102.87 88.9 270)
    (descr "Capacitor 3mm Disc, Pitch 2.5mm")
    (tags Capacitor)
    (path /5720FBC9)
    (fp_text reference C2 (at 1.25 -2.5 270) (layer F.SilkS)
      (effects (font (size 1 1) (thickness 0.15)))
    )
    (fp_text value 100nF (at 1.25 2.5 270) (layer F.Fab)
      (effects (font (size 1 1) (thickness 0.15)))
    )
    (fp_line (start -0.9 -1.5) (end 3.4 -1.5) (layer F.CrtYd) (width 0.05))
    (fp_line (start 3.4 -1.5) (end 3.4 1.5) (layer F.CrtYd) (width 0.05))
    (fp_line (start 3.4 1.5) (end -0.9 1.5) (layer F.CrtYd) (width 0.05))
    (fp_line (start -0.9 1.5) (end -0.9 -1.5) (layer F.CrtYd) (width 0.05))
    (fp_line (start -0.25 -1.25) (end 2.75 -1.25) (layer F.SilkS) (width 0.15))
    (fp_line (start 2.75 1.25) (end -0.25 1.25) (layer F.SilkS) (width 0.15))
    (pad 1 thru_hole rect (at 0 0 270) (size 1.3 1.3) (drill 0.8) (layers *.Cu *.Mask F.SilkS)
      (net 3 "Net-(C1-Pad1)"))
    (pad 2 thru_hole circle (at 2.5 0 270) (size 1.3 1.3) (drill 0.8001) (layers *.Cu *.Mask F.SilkS)
      (net 5 "Net-(C2-Pad2)"))
    (model Capacitors_ThroughHole.3dshapes/C_Disc_D3_P2.5.wrl
      (at (xyz 0.0492126 0 0))
      (scale (xyz 1 1 1))
      (rotate (xyz 0 0 0))
    )
  )

  (module Capacitors_ThroughHole:C_Disc_D3_P2.5 placed (layer F.Cu) (tedit 0) (tstamp 5720D642)
    (at 142.24 92.71 270)
    (descr "Capacitor 3mm Disc, Pitch 2.5mm")
    (tags Capacitor)
    (path /572122CB)
    (fp_text reference C3 (at 1.25 -2.5 270) (layer F.SilkS)
      (effects (font (size 1 1) (thickness 0.15)))
    )
    (fp_text value 100nF (at 1.25 2.5 270) (layer F.Fab)
      (effects (font (size 1 1) (thickness 0.15)))
    )
    (fp_line (start -0.9 -1.5) (end 3.4 -1.5) (layer F.CrtYd) (width 0.05))
    (fp_line (start 3.4 -1.5) (end 3.4 1.5) (layer F.CrtYd) (width 0.05))
    (fp_line (start 3.4 1.5) (end -0.9 1.5) (layer F.CrtYd) (width 0.05))
    (fp_line (start -0.9 1.5) (end -0.9 -1.5) (layer F.CrtYd) (width 0.05))
    (fp_line (start -0.25 -1.25) (end 2.75 -1.25) (layer F.SilkS) (width 0.15))
    (fp_line (start 2.75 1.25) (end -0.25 1.25) (layer F.SilkS) (width 0.15))
    (pad 1 thru_hole rect (at 0 0 270) (size 1.3 1.3) (drill 0.8) (layers *.Cu *.Mask F.SilkS)
      (net 3 "Net-(C1-Pad1)"))
    (pad 2 thru_hole circle (at 2.5 0 270) (size 1.3 1.3) (drill 0.8001) (layers *.Cu *.Mask F.SilkS)
      (net 1 "Net-(10k1-Pad1)"))
    (model Capacitors_ThroughHole.3dshapes/C_Disc_D3_P2.5.wrl
      (at (xyz 0.0492126 0 0))
      (scale (xyz 1 1 1))
      (rotate (xyz 0 0 0))
    )
  )

  (module Housings_DIP:DIP-28_W7.62mm_LongPads locked (layer F.Cu) (tedit 54130A77) (tstamp 5720D662)
    (at 128.27 74.93)
    (descr "28-lead dip package, row spacing 7.62 mm (300 mils), longer pads")
    (tags "dil dip 2.54 300")
    (path /5720DB86)
    (fp_text reference IC1 (at 0 -5.22) (layer F.SilkS)
      (effects (font (size 1 1) (thickness 0.15)))
    )
    (fp_text value ATMEGA328-P (at 0 -3.72) (layer F.Fab)
      (effects (font (size 1 1) (thickness 0.15)))
    )
    (fp_line (start -1.4 -2.45) (end -1.4 35.5) (layer F.CrtYd) (width 0.05))
    (fp_line (start 9 -2.45) (end 9 35.5) (layer F.CrtYd) (width 0.05))
    (fp_line (start -1.4 -2.45) (end 9 -2.45) (layer F.CrtYd) (width 0.05))
    (fp_line (start -1.4 35.5) (end 9 35.5) (layer F.CrtYd) (width 0.05))
    (fp_line (start 0.135 -2.295) (end 0.135 -1.025) (layer F.SilkS) (width 0.15))
    (fp_line (start 7.485 -2.295) (end 7.485 -1.025) (layer F.SilkS) (width 0.15))
    (fp_line (start 7.485 35.315) (end 7.485 34.045) (layer F.SilkS) (width 0.15))
    (fp_line (start 0.135 35.315) (end 0.135 34.045) (layer F.SilkS) (width 0.15))
    (fp_line (start 0.135 -2.295) (end 7.485 -2.295) (layer F.SilkS) (width 0.15))
    (fp_line (start 0.135 35.315) (end 7.485 35.315) (layer F.SilkS) (width 0.15))
    (fp_line (start 0.135 -1.025) (end -1.15 -1.025) (layer F.SilkS) (width 0.15))
    (pad 1 thru_hole oval (at 0 0) (size 2.3 1.6) (drill 0.8) (layers *.Cu *.Mask F.SilkS)
      (net 2 "Net-(10k1-Pad2)"))
    (pad 2 thru_hole oval (at 0 2.54) (size 2.3 1.6) (drill 0.8) (layers *.Cu *.Mask F.SilkS)
      (net 6 "Net-(IC1-Pad2)"))
    (pad 3 thru_hole oval (at 0 5.08) (size 2.3 1.6) (drill 0.8) (layers *.Cu *.Mask F.SilkS)
      (net 7 "Net-(IC1-Pad3)"))
    (pad 4 thru_hole oval (at 0 7.62) (size 2.3 1.6) (drill 0.8) (layers *.Cu *.Mask F.SilkS)
      (net 8 "Net-(IC1-Pad4)"))
    (pad 5 thru_hole oval (at 0 10.16) (size 2.3 1.6) (drill 0.8) (layers *.Cu *.Mask F.SilkS)
      (net 9 "Net-(IC1-Pad5)"))
    (pad 6 thru_hole oval (at 0 12.7) (size 2.3 1.6) (drill 0.8) (layers *.Cu *.Mask F.SilkS)
      (net 10 "Net-(IC1-Pad6)"))
    (pad 7 thru_hole oval (at 0 15.24) (size 2.3 1.6) (drill 0.8) (layers *.Cu *.Mask F.SilkS)
      (net 1 "Net-(10k1-Pad1)"))
    (pad 8 thru_hole oval (at 0 17.78) (size 2.3 1.6) (drill 0.8) (layers *.Cu *.Mask F.SilkS)
      (net 3 "Net-(C1-Pad1)"))
    (pad 9 thru_hole oval (at 0 20.32) (size 2.3 1.6) (drill 0.8) (layers *.Cu *.Mask F.SilkS)
      (net 4 "Net-(C1-Pad2)"))
    (pad 10 thru_hole oval (at 0 22.86) (size 2.3 1.6) (drill 0.8) (layers *.Cu *.Mask F.SilkS)
      (net 5 "Net-(C2-Pad2)"))
    (pad 11 thru_hole oval (at 0 25.4) (size 2.3 1.6) (drill 0.8) (layers *.Cu *.Mask F.SilkS)
      (net 11 "Net-(IC1-Pad11)"))
    (pad 12 thru_hole oval (at 0 27.94) (size 2.3 1.6) (drill 0.8) (layers *.Cu *.Mask F.SilkS)
      (net 12 "Net-(IC1-Pad12)"))
    (pad 13 thru_hole oval (at 0 30.48) (size 2.3 1.6) (drill 0.8) (layers *.Cu *.Mask F.SilkS)
      (net 13 "Net-(IC1-Pad13)"))
    (pad 14 thru_hole oval (at 0 33.02) (size 2.3 1.6) (drill 0.8) (layers *.Cu *.Mask F.SilkS)
      (net 14 "Net-(IC1-Pad14)"))
    (pad 15 thru_hole oval (at 7.62 33.02) (size 2.3 1.6) (drill 0.8) (layers *.Cu *.Mask F.SilkS)
      (net 15 "Net-(IC1-Pad15)"))
    (pad 16 thru_hole oval (at 7.62 30.48) (size 2.3 1.6) (drill 0.8) (layers *.Cu *.Mask F.SilkS)
      (net 16 "Net-(IC1-Pad16)"))
    (pad 17 thru_hole oval (at 7.62 27.94) (size 2.3 1.6) (drill 0.8) (layers *.Cu *.Mask F.SilkS)
      (net 17 "Net-(IC1-Pad17)"))
    (pad 18 thru_hole oval (at 7.62 25.4) (size 2.3 1.6) (drill 0.8) (layers *.Cu *.Mask F.SilkS)
      (net 18 "Net-(IC1-Pad18)"))
    (pad 19 thru_hole oval (at 7.62 22.86) (size 2.3 1.6) (drill 0.8) (layers *.Cu *.Mask F.SilkS)
      (net 19 "Net-(IC1-Pad19)"))
    (pad 20 thru_hole oval (at 7.62 20.32) (size 2.3 1.6) (drill 0.8) (layers *.Cu *.Mask F.SilkS)
      (net 1 "Net-(10k1-Pad1)"))
    (pad 21 thru_hole oval (at 7.62 17.78) (size 2.3 1.6) (drill 0.8) (layers *.Cu *.Mask F.SilkS)
      (net 20 "Net-(IC1-Pad21)"))
    (pad 22 thru_hole oval (at 7.62 15.24) (size 2.3 1.6) (drill 0.8) (layers *.Cu *.Mask F.SilkS)
      (net 3 "Net-(C1-Pad1)"))
    (pad 23 thru_hole oval (at 7.62 12.7) (size 2.3 1.6) (drill 0.8) (layers *.Cu *.Mask F.SilkS)
      (net 21 "Net-(IC1-Pad23)"))
    (pad 24 thru_hole oval (at 7.62 10.16) (size 2.3 1.6) (drill 0.8) (layers *.Cu *.Mask F.SilkS)
      (net 22 "Net-(IC1-Pad24)"))
    (pad 25 thru_hole oval (at 7.62 7.62) (size 2.3 1.6) (drill 0.8) (layers *.Cu *.Mask F.SilkS)
      (net 23 "Net-(IC1-Pad25)"))
    (pad 26 thru_hole oval (at 7.62 5.08) (size 2.3 1.6) (drill 0.8) (layers *.Cu *.Mask F.SilkS)
      (net 24 "Net-(IC1-Pad26)"))
    (pad 27 thru_hole oval (at 7.62 2.54) (size 2.3 1.6) (drill 0.8) (layers *.Cu *.Mask F.SilkS)
      (net 25 "Net-(IC1-Pad27)"))
    (pad 28 thru_hole oval (at 7.62 0) (size 2.3 1.6) (drill 0.8) (layers *.Cu *.Mask F.SilkS)
      (net 26 "Net-(IC1-Pad28)"))
    (model Housings_DIP.3dshapes/DIP-28_W7.62mm_LongPads.wrl
      (at (xyz 0 0 0))
      (scale (xyz 1 1 1))
      (rotate (xyz 0 0 0))
    )
  )

  (module Pin_Headers:Pin_Header_Straight_1x01 (layer F.Cu) (tedit 54EA08DC) (tstamp 5720D667)
    (at 142.24 109.22)
    (descr "Through hole pin header")
    (tags "pin header")
    (path /572140E2)
    (fp_text reference P1 (at 0 -5.1) (layer F.SilkS)
      (effects (font (size 1 1) (thickness 0.15)))
    )
    (fp_text value DHT (at 0 -3.1) (layer F.Fab)
      (effects (font (size 1 1) (thickness 0.15)))
    )
    (fp_line (start 1.55 -1.55) (end 1.55 0) (layer F.SilkS) (width 0.15))
    (fp_line (start -1.75 -1.75) (end -1.75 1.75) (layer F.CrtYd) (width 0.05))
    (fp_line (start 1.75 -1.75) (end 1.75 1.75) (layer F.CrtYd) (width 0.05))
    (fp_line (start -1.75 -1.75) (end 1.75 -1.75) (layer F.CrtYd) (width 0.05))
    (fp_line (start -1.75 1.75) (end 1.75 1.75) (layer F.CrtYd) (width 0.05))
    (fp_line (start -1.55 0) (end -1.55 -1.55) (layer F.SilkS) (width 0.15))
    (fp_line (start -1.55 -1.55) (end 1.55 -1.55) (layer F.SilkS) (width 0.15))
    (fp_line (start -1.27 1.27) (end 1.27 1.27) (layer F.SilkS) (width 0.15))
    (pad 1 thru_hole rect (at 0 0) (size 2.2352 2.2352) (drill 1.016) (layers *.Cu *.Mask F.SilkS)
      (net 15 "Net-(IC1-Pad15)"))
    (model Pin_Headers.3dshapes/Pin_Header_Straight_1x01.wrl
      (at (xyz 0 0 0))
      (scale (xyz 1 1 1))
      (rotate (xyz 0 0 90))
    )
  )

  (module Pin_Headers:Pin_Header_Straight_1x01 (layer F.Cu) (tedit 54EA08DC) (tstamp 5720D66C)
    (at 142.24 105.41)
    (descr "Through hole pin header")
    (tags "pin header")
    (path /57214135)
    (fp_text reference P2 (at 0 -5.1) (layer F.SilkS)
      (effects (font (size 1 1) (thickness 0.15)))
    )
    (fp_text value DHT (at 0 -3.1) (layer F.Fab)
      (effects (font (size 1 1) (thickness 0.15)))
    )
    (fp_line (start 1.55 -1.55) (end 1.55 0) (layer F.SilkS) (width 0.15))
    (fp_line (start -1.75 -1.75) (end -1.75 1.75) (layer F.CrtYd) (width 0.05))
    (fp_line (start 1.75 -1.75) (end 1.75 1.75) (layer F.CrtYd) (width 0.05))
    (fp_line (start -1.75 -1.75) (end 1.75 -1.75) (layer F.CrtYd) (width 0.05))
    (fp_line (start -1.75 1.75) (end 1.75 1.75) (layer F.CrtYd) (width 0.05))
    (fp_line (start -1.55 0) (end -1.55 -1.55) (layer F.SilkS) (width 0.15))
    (fp_line (start -1.55 -1.55) (end 1.55 -1.55) (layer F.SilkS) (width 0.15))
    (fp_line (start -1.27 1.27) (end 1.27 1.27) (layer F.SilkS) (width 0.15))
    (pad 1 thru_hole rect (at 0 0) (size 2.2352 2.2352) (drill 1.016) (layers *.Cu *.Mask F.SilkS)
      (net 16 "Net-(IC1-Pad16)"))
    (model Pin_Headers.3dshapes/Pin_Header_Straight_1x01.wrl
      (at (xyz 0 0 0))
      (scale (xyz 1 1 1))
      (rotate (xyz 0 0 90))
    )
  )

  (module Pin_Headers:Pin_Header_Straight_1x01 (layer F.Cu) (tedit 54EA08DC) (tstamp 5720D671)
    (at 142.24 88.9)
    (descr "Through hole pin header")
    (tags "pin header")
    (path /5720E6BE)
    (fp_text reference P3 (at 0 -5.1) (layer F.SilkS)
      (effects (font (size 1 1) (thickness 0.15)))
    )
    (fp_text value FOT (at 0 -3.1) (layer F.Fab)
      (effects (font (size 1 1) (thickness 0.15)))
    )
    (fp_line (start 1.55 -1.55) (end 1.55 0) (layer F.SilkS) (width 0.15))
    (fp_line (start -1.75 -1.75) (end -1.75 1.75) (layer F.CrtYd) (width 0.05))
    (fp_line (start 1.75 -1.75) (end 1.75 1.75) (layer F.CrtYd) (width 0.05))
    (fp_line (start -1.75 -1.75) (end 1.75 -1.75) (layer F.CrtYd) (width 0.05))
    (fp_line (start -1.75 1.75) (end 1.75 1.75) (layer F.CrtYd) (width 0.05))
    (fp_line (start -1.55 0) (end -1.55 -1.55) (layer F.SilkS) (width 0.15))
    (fp_line (start -1.55 -1.55) (end 1.55 -1.55) (layer F.SilkS) (width 0.15))
    (fp_line (start -1.27 1.27) (end 1.27 1.27) (layer F.SilkS) (width 0.15))
    (pad 1 thru_hole rect (at 0 0) (size 2.2352 2.2352) (drill 1.016) (layers *.Cu *.Mask F.SilkS)
      (net 21 "Net-(IC1-Pad23)"))
    (model Pin_Headers.3dshapes/Pin_Header_Straight_1x01.wrl
      (at (xyz 0 0 0))
      (scale (xyz 1 1 1))
      (rotate (xyz 0 0 90))
    )
  )

  (module Pin_Headers:Pin_Header_Straight_1x01 (layer F.Cu) (tedit 54EA08DC) (tstamp 5720D676)
    (at 142.24 85.09)
    (descr "Through hole pin header")
    (tags "pin header")
    (path /5720E6FF)
    (fp_text reference P4 (at 0 -5.1) (layer F.SilkS)
      (effects (font (size 1 1) (thickness 0.15)))
    )
    (fp_text value FOT (at 0 -3.1) (layer F.Fab)
      (effects (font (size 1 1) (thickness 0.15)))
    )
    (fp_line (start 1.55 -1.55) (end 1.55 0) (layer F.SilkS) (width 0.15))
    (fp_line (start -1.75 -1.75) (end -1.75 1.75) (layer F.CrtYd) (width 0.05))
    (fp_line (start 1.75 -1.75) (end 1.75 1.75) (layer F.CrtYd) (width 0.05))
    (fp_line (start -1.75 -1.75) (end 1.75 -1.75) (layer F.CrtYd) (width 0.05))
    (fp_line (start -1.75 1.75) (end 1.75 1.75) (layer F.CrtYd) (width 0.05))
    (fp_line (start -1.55 0) (end -1.55 -1.55) (layer F.SilkS) (width 0.15))
    (fp_line (start -1.55 -1.55) (end 1.55 -1.55) (layer F.SilkS) (width 0.15))
    (fp_line (start -1.27 1.27) (end 1.27 1.27) (layer F.SilkS) (width 0.15))
    (pad 1 thru_hole rect (at 0 0) (size 2.2352 2.2352) (drill 1.016) (layers *.Cu *.Mask F.SilkS)
      (net 22 "Net-(IC1-Pad24)"))
    (model Pin_Headers.3dshapes/Pin_Header_Straight_1x01.wrl
      (at (xyz 0 0 0))
      (scale (xyz 1 1 1))
      (rotate (xyz 0 0 90))
    )
  )

  (module Pin_Headers:Pin_Header_Straight_1x01 placed (layer F.Cu) (tedit 54EA08DC) (tstamp 5720D67B)
    (at 106.68 72.39)
    (descr "Through hole pin header")
    (tags "pin header")
    (path /57211F17)
    (fp_text reference P5 (at 0 -5.1) (layer F.SilkS)
      (effects (font (size 1 1) (thickness 0.15)))
    )
    (fp_text value +5V (at 0 -3.1) (layer F.Fab)
      (effects (font (size 1 1) (thickness 0.15)))
    )
    (fp_line (start 1.55 -1.55) (end 1.55 0) (layer F.SilkS) (width 0.15))
    (fp_line (start -1.75 -1.75) (end -1.75 1.75) (layer F.CrtYd) (width 0.05))
    (fp_line (start 1.75 -1.75) (end 1.75 1.75) (layer F.CrtYd) (width 0.05))
    (fp_line (start -1.75 -1.75) (end 1.75 -1.75) (layer F.CrtYd) (width 0.05))
    (fp_line (start -1.75 1.75) (end 1.75 1.75) (layer F.CrtYd) (width 0.05))
    (fp_line (start -1.55 0) (end -1.55 -1.55) (layer F.SilkS) (width 0.15))
    (fp_line (start -1.55 -1.55) (end 1.55 -1.55) (layer F.SilkS) (width 0.15))
    (fp_line (start -1.27 1.27) (end 1.27 1.27) (layer F.SilkS) (width 0.15))
    (pad 1 thru_hole rect (at 0 0) (size 2.2352 2.2352) (drill 1.016) (layers *.Cu *.Mask F.SilkS)
      (net 1 "Net-(10k1-Pad1)"))
    (model Pin_Headers.3dshapes/Pin_Header_Straight_1x01.wrl
      (at (xyz 0 0 0))
      (scale (xyz 1 1 1))
      (rotate (xyz 0 0 90))
    )
  )

  (module Pin_Headers:Pin_Header_Straight_1x01 (layer F.Cu) (tedit 54EA08DC) (tstamp 5720D680)
    (at 111.76 88.9)
    (descr "Through hole pin header")
    (tags "pin header")
    (path /5720E7D1)
    (fp_text reference P6 (at 0 -5.1) (layer F.SilkS)
      (effects (font (size 1 1) (thickness 0.15)))
    )
    (fp_text value MAX (at 0 -3.1) (layer F.Fab)
      (effects (font (size 1 1) (thickness 0.15)))
    )
    (fp_line (start 1.55 -1.55) (end 1.55 0) (layer F.SilkS) (width 0.15))
    (fp_line (start -1.75 -1.75) (end -1.75 1.75) (layer F.CrtYd) (width 0.05))
    (fp_line (start 1.75 -1.75) (end 1.75 1.75) (layer F.CrtYd) (width 0.05))
    (fp_line (start -1.75 -1.75) (end 1.75 -1.75) (layer F.CrtYd) (width 0.05))
    (fp_line (start -1.75 1.75) (end 1.75 1.75) (layer F.CrtYd) (width 0.05))
    (fp_line (start -1.55 0) (end -1.55 -1.55) (layer F.SilkS) (width 0.15))
    (fp_line (start -1.55 -1.55) (end 1.55 -1.55) (layer F.SilkS) (width 0.15))
    (fp_line (start -1.27 1.27) (end 1.27 1.27) (layer F.SilkS) (width 0.15))
    (pad 1 thru_hole rect (at 0 0) (size 2.2352 2.2352) (drill 1.016) (layers *.Cu *.Mask F.SilkS)
      (net 3 "Net-(C1-Pad1)"))
    (model Pin_Headers.3dshapes/Pin_Header_Straight_1x01.wrl
      (at (xyz 0 0 0))
      (scale (xyz 1 1 1))
      (rotate (xyz 0 0 90))
    )
  )

  (module Pin_Headers:Pin_Header_Straight_1x01 (layer F.Cu) (tedit 54EA08DC) (tstamp 5720D685)
    (at 111.76 77.47)
    (descr "Through hole pin header")
    (tags "pin header")
    (path /5720E7AE)
    (fp_text reference P7 (at 0 -5.1) (layer F.SilkS)
      (effects (font (size 1 1) (thickness 0.15)))
    )
    (fp_text value MAX (at 0 -3.1) (layer F.Fab)
      (effects (font (size 1 1) (thickness 0.15)))
    )
    (fp_line (start 1.55 -1.55) (end 1.55 0) (layer F.SilkS) (width 0.15))
    (fp_line (start -1.75 -1.75) (end -1.75 1.75) (layer F.CrtYd) (width 0.05))
    (fp_line (start 1.75 -1.75) (end 1.75 1.75) (layer F.CrtYd) (width 0.05))
    (fp_line (start -1.75 -1.75) (end 1.75 -1.75) (layer F.CrtYd) (width 0.05))
    (fp_line (start -1.75 1.75) (end 1.75 1.75) (layer F.CrtYd) (width 0.05))
    (fp_line (start -1.55 0) (end -1.55 -1.55) (layer F.SilkS) (width 0.15))
    (fp_line (start -1.55 -1.55) (end 1.55 -1.55) (layer F.SilkS) (width 0.15))
    (fp_line (start -1.27 1.27) (end 1.27 1.27) (layer F.SilkS) (width 0.15))
    (pad 1 thru_hole rect (at 0 0) (size 2.2352 2.2352) (drill 1.016) (layers *.Cu *.Mask F.SilkS)
      (net 6 "Net-(IC1-Pad2)"))
    (model Pin_Headers.3dshapes/Pin_Header_Straight_1x01.wrl
      (at (xyz 0 0 0))
      (scale (xyz 1 1 1))
      (rotate (xyz 0 0 90))
    )
  )

  (module Pin_Headers:Pin_Header_Straight_1x01 (layer F.Cu) (tedit 54EA08DC) (tstamp 5720D68A)
    (at 111.76 81.28)
    (descr "Through hole pin header")
    (tags "pin header")
    (path /5720E777)
    (fp_text reference P8 (at 0 -5.1) (layer F.SilkS)
      (effects (font (size 1 1) (thickness 0.15)))
    )
    (fp_text value MAX (at 0 -3.1) (layer F.Fab)
      (effects (font (size 1 1) (thickness 0.15)))
    )
    (fp_line (start 1.55 -1.55) (end 1.55 0) (layer F.SilkS) (width 0.15))
    (fp_line (start -1.75 -1.75) (end -1.75 1.75) (layer F.CrtYd) (width 0.05))
    (fp_line (start 1.75 -1.75) (end 1.75 1.75) (layer F.CrtYd) (width 0.05))
    (fp_line (start -1.75 -1.75) (end 1.75 -1.75) (layer F.CrtYd) (width 0.05))
    (fp_line (start -1.75 1.75) (end 1.75 1.75) (layer F.CrtYd) (width 0.05))
    (fp_line (start -1.55 0) (end -1.55 -1.55) (layer F.SilkS) (width 0.15))
    (fp_line (start -1.55 -1.55) (end 1.55 -1.55) (layer F.SilkS) (width 0.15))
    (fp_line (start -1.27 1.27) (end 1.27 1.27) (layer F.SilkS) (width 0.15))
    (pad 1 thru_hole rect (at 0 0) (size 2.2352 2.2352) (drill 1.016) (layers *.Cu *.Mask F.SilkS)
      (net 7 "Net-(IC1-Pad3)"))
    (model Pin_Headers.3dshapes/Pin_Header_Straight_1x01.wrl
      (at (xyz 0 0 0))
      (scale (xyz 1 1 1))
      (rotate (xyz 0 0 90))
    )
  )

  (module Pin_Headers:Pin_Header_Straight_1x01 placed (layer F.Cu) (tedit 54EA08DC) (tstamp 5720D68F)
    (at 111.76 85.09)
    (descr "Through hole pin header")
    (tags "pin header")
    (path /5720E74A)
    (fp_text reference P9 (at 0 -5.1) (layer F.SilkS)
      (effects (font (size 1 1) (thickness 0.15)))
    )
    (fp_text value MAX (at 0 -3.1) (layer F.Fab)
      (effects (font (size 1 1) (thickness 0.15)))
    )
    (fp_line (start 1.55 -1.55) (end 1.55 0) (layer F.SilkS) (width 0.15))
    (fp_line (start -1.75 -1.75) (end -1.75 1.75) (layer F.CrtYd) (width 0.05))
    (fp_line (start 1.75 -1.75) (end 1.75 1.75) (layer F.CrtYd) (width 0.05))
    (fp_line (start -1.75 -1.75) (end 1.75 -1.75) (layer F.CrtYd) (width 0.05))
    (fp_line (start -1.75 1.75) (end 1.75 1.75) (layer F.CrtYd) (width 0.05))
    (fp_line (start -1.55 0) (end -1.55 -1.55) (layer F.SilkS) (width 0.15))
    (fp_line (start -1.55 -1.55) (end 1.55 -1.55) (layer F.SilkS) (width 0.15))
    (fp_line (start -1.27 1.27) (end 1.27 1.27) (layer F.SilkS) (width 0.15))
    (pad 1 thru_hole rect (at 0 0) (size 2.2352 2.2352) (drill 1.016) (layers *.Cu *.Mask F.SilkS)
      (net 1 "Net-(10k1-Pad1)"))
    (model Pin_Headers.3dshapes/Pin_Header_Straight_1x01.wrl
      (at (xyz 0 0 0))
      (scale (xyz 1 1 1))
      (rotate (xyz 0 0 90))
    )
  )

  (module Pin_Headers:Pin_Header_Straight_1x01 placed (layer F.Cu) (tedit 54EA08DC) (tstamp 5720D694)
    (at 102.87 72.39)
    (descr "Through hole pin header")
    (tags "pin header")
    (path /57211F96)
    (fp_text reference P10 (at 0 -5.1) (layer F.SilkS)
      (effects (font (size 1 1) (thickness 0.15)))
    )
    (fp_text value GND (at 0 -3.1) (layer F.Fab)
      (effects (font (size 1 1) (thickness 0.15)))
    )
    (fp_line (start 1.55 -1.55) (end 1.55 0) (layer F.SilkS) (width 0.15))
    (fp_line (start -1.75 -1.75) (end -1.75 1.75) (layer F.CrtYd) (width 0.05))
    (fp_line (start 1.75 -1.75) (end 1.75 1.75) (layer F.CrtYd) (width 0.05))
    (fp_line (start -1.75 -1.75) (end 1.75 -1.75) (layer F.CrtYd) (width 0.05))
    (fp_line (start -1.75 1.75) (end 1.75 1.75) (layer F.CrtYd) (width 0.05))
    (fp_line (start -1.55 0) (end -1.55 -1.55) (layer F.SilkS) (width 0.15))
    (fp_line (start -1.55 -1.55) (end 1.55 -1.55) (layer F.SilkS) (width 0.15))
    (fp_line (start -1.27 1.27) (end 1.27 1.27) (layer F.SilkS) (width 0.15))
    (pad 1 thru_hole rect (at 0 0) (size 2.2352 2.2352) (drill 1.016) (layers *.Cu *.Mask F.SilkS)
      (net 3 "Net-(C1-Pad1)"))
    (model Pin_Headers.3dshapes/Pin_Header_Straight_1x01.wrl
      (at (xyz 0 0 0))
      (scale (xyz 1 1 1))
      (rotate (xyz 0 0 90))
    )
  )

  (module Pin_Headers:Pin_Header_Straight_1x01 placed (layer F.Cu) (tedit 54EA08DC) (tstamp 5720D699)
    (at 120.65 90.17)
    (descr "Through hole pin header")
    (tags "pin header")
    (path /5720EA5E)
    (fp_text reference P11 (at 0 -5.1) (layer F.SilkS)
      (effects (font (size 1 1) (thickness 0.15)))
    )
    (fp_text value LED (at 0 -3.1) (layer F.Fab)
      (effects (font (size 1 1) (thickness 0.15)))
    )
    (fp_line (start 1.55 -1.55) (end 1.55 0) (layer F.SilkS) (width 0.15))
    (fp_line (start -1.75 -1.75) (end -1.75 1.75) (layer F.CrtYd) (width 0.05))
    (fp_line (start 1.75 -1.75) (end 1.75 1.75) (layer F.CrtYd) (width 0.05))
    (fp_line (start -1.75 -1.75) (end 1.75 -1.75) (layer F.CrtYd) (width 0.05))
    (fp_line (start -1.75 1.75) (end 1.75 1.75) (layer F.CrtYd) (width 0.05))
    (fp_line (start -1.55 0) (end -1.55 -1.55) (layer F.SilkS) (width 0.15))
    (fp_line (start -1.55 -1.55) (end 1.55 -1.55) (layer F.SilkS) (width 0.15))
    (fp_line (start -1.27 1.27) (end 1.27 1.27) (layer F.SilkS) (width 0.15))
    (pad 1 thru_hole rect (at 0 0) (size 2.2352 2.2352) (drill 1.016) (layers *.Cu *.Mask F.SilkS)
      (net 3 "Net-(C1-Pad1)"))
    (model Pin_Headers.3dshapes/Pin_Header_Straight_1x01.wrl
      (at (xyz 0 0 0))
      (scale (xyz 1 1 1))
      (rotate (xyz 0 0 90))
    )
  )

  (module Pin_Headers:Pin_Header_Straight_1x01 (layer F.Cu) (tedit 54EA08DC) (tstamp 5720D69E)
    (at 120.65 82.55)
    (descr "Through hole pin header")
    (tags "pin header")
    (path /5720EAE3)
    (fp_text reference P12 (at 0 -5.1) (layer F.SilkS)
      (effects (font (size 1 1) (thickness 0.15)))
    )
    (fp_text value LED (at 0 -3.1) (layer F.Fab)
      (effects (font (size 1 1) (thickness 0.15)))
    )
    (fp_line (start 1.55 -1.55) (end 1.55 0) (layer F.SilkS) (width 0.15))
    (fp_line (start -1.75 -1.75) (end -1.75 1.75) (layer F.CrtYd) (width 0.05))
    (fp_line (start 1.75 -1.75) (end 1.75 1.75) (layer F.CrtYd) (width 0.05))
    (fp_line (start -1.75 -1.75) (end 1.75 -1.75) (layer F.CrtYd) (width 0.05))
    (fp_line (start -1.75 1.75) (end 1.75 1.75) (layer F.CrtYd) (width 0.05))
    (fp_line (start -1.55 0) (end -1.55 -1.55) (layer F.SilkS) (width 0.15))
    (fp_line (start -1.55 -1.55) (end 1.55 -1.55) (layer F.SilkS) (width 0.15))
    (fp_line (start -1.27 1.27) (end 1.27 1.27) (layer F.SilkS) (width 0.15))
    (pad 1 thru_hole rect (at 0 0) (size 2.2352 2.2352) (drill 1.016) (layers *.Cu *.Mask F.SilkS)
      (net 8 "Net-(IC1-Pad4)"))
    (model Pin_Headers.3dshapes/Pin_Header_Straight_1x01.wrl
      (at (xyz 0 0 0))
      (scale (xyz 1 1 1))
      (rotate (xyz 0 0 90))
    )
  )

  (module Pin_Headers:Pin_Header_Straight_1x01 placed (layer F.Cu) (tedit 54EA08DC) (tstamp 5720D6A3)
    (at 120.65 86.36)
    (descr "Through hole pin header")
    (tags "pin header")
    (path /5720EB10)
    (fp_text reference P13 (at 0 -5.1) (layer F.SilkS)
      (effects (font (size 1 1) (thickness 0.15)))
    )
    (fp_text value LED (at 0 -3.1) (layer F.Fab)
      (effects (font (size 1 1) (thickness 0.15)))
    )
    (fp_line (start 1.55 -1.55) (end 1.55 0) (layer F.SilkS) (width 0.15))
    (fp_line (start -1.75 -1.75) (end -1.75 1.75) (layer F.CrtYd) (width 0.05))
    (fp_line (start 1.75 -1.75) (end 1.75 1.75) (layer F.CrtYd) (width 0.05))
    (fp_line (start -1.75 -1.75) (end 1.75 -1.75) (layer F.CrtYd) (width 0.05))
    (fp_line (start -1.75 1.75) (end 1.75 1.75) (layer F.CrtYd) (width 0.05))
    (fp_line (start -1.55 0) (end -1.55 -1.55) (layer F.SilkS) (width 0.15))
    (fp_line (start -1.55 -1.55) (end 1.55 -1.55) (layer F.SilkS) (width 0.15))
    (fp_line (start -1.27 1.27) (end 1.27 1.27) (layer F.SilkS) (width 0.15))
    (pad 1 thru_hole rect (at 0 0) (size 2.2352 2.2352) (drill 1.016) (layers *.Cu *.Mask F.SilkS)
      (net 1 "Net-(10k1-Pad1)"))
    (model Pin_Headers.3dshapes/Pin_Header_Straight_1x01.wrl
      (at (xyz 0 0 0))
      (scale (xyz 1 1 1))
      (rotate (xyz 0 0 90))
    )
  )

  (module Crystals:HC-49V placed (layer F.Cu) (tedit 56D4D4E4) (tstamp 5720D6A9)
    (at 120.65 100.33 90)
    (descr "Quartz boitier HC-49 Vertical")
    (tags "QUARTZ DEV")
    (path /5720F590)
    (fp_text reference Y1 (at 0 -3.175 90) (layer F.SilkS)
      (effects (font (size 1 1) (thickness 0.15)))
    )
    (fp_text value 16MHz (at 0 3.175 90) (layer F.Fab)
      (effects (font (size 1 1) (thickness 0.15)))
    )
    (fp_line (start 5.35 2.8) (end -0.25 2.8) (layer F.CrtYd) (width 0.05))
    (fp_line (start -0.25 -2.8) (end 5.35 -2.8) (layer F.CrtYd) (width 0.05))
    (fp_arc (start -0.25 0) (end -0.25 2.8) (angle 180) (layer F.CrtYd) (width 0.05))
    (fp_arc (start 5.35 0) (end 5.35 -2.8) (angle 180) (layer F.CrtYd) (width 0.05))
    (fp_arc (start 5.334 0) (end 5.334 -2.286) (angle 180) (layer F.SilkS) (width 0.15))
    (fp_arc (start -0.254 0) (end -0.254 2.286) (angle 180) (layer F.SilkS) (width 0.15))
    (fp_line (start -0.254 2.286) (end 5.334 2.286) (layer F.SilkS) (width 0.15))
    (fp_line (start -0.254 -2.286) (end 5.334 -2.286) (layer F.SilkS) (width 0.15))
    (pad 1 thru_hole circle (at 0 0 90) (size 1.4224 1.4224) (drill 0.762) (layers *.Cu *.Mask F.SilkS)
      (net 5 "Net-(C2-Pad2)"))
    (pad 2 thru_hole circle (at 5.08 0 90) (size 1.4224 1.4224) (drill 0.762) (layers *.Cu *.Mask F.SilkS)
      (net 4 "Net-(C1-Pad2)"))
    (model Crystals.3dshapes/HC-49V.wrl
      (at (xyz 0.1 0 0))
      (scale (xyz 1 1 0.2))
      (rotate (xyz 0 0 0))
    )
  )

  (segment (start 128.27 90.17) (end 130.81 90.17) (width 0.25) (layer B.Cu) (net 1) (status 400000))
  (segment (start 132.08 95.25) (end 135.89 95.25) (width 0.25) (layer B.Cu) (net 1) (tstamp 5720DAE0) (status 800000))
  (segment (start 132.08 90.17) (end 132.08 95.25) (width 0.25) (layer B.Cu) (net 1) (tstamp 5720DADF))
  (segment (start 130.81 90.17) (end 132.08 90.17) (width 0.25) (layer B.Cu) (net 1) (tstamp 5720DADE))
  (segment (start 106.68 72.39) (end 106.68 85.09) (width 0.25) (layer B.Cu) (net 1))
  (segment (start 106.68 85.09) (end 111.76 85.09) (width 0.25) (layer B.Cu) (net 1) (tstamp 5720DAAA))
  (segment (start 111.76 72.39) (end 106.68 72.39) (width 0.25) (layer B.Cu) (net 1))
  (segment (start 120.65 86.36) (end 116.84 86.36) (width 0.25) (layer B.Cu) (net 1))
  (segment (start 116.84 86.36) (end 115.57 85.09) (width 0.25) (layer B.Cu) (net 1) (tstamp 5720DA73))
  (segment (start 115.57 85.09) (end 111.76 85.09) (width 0.25) (layer B.Cu) (net 1) (tstamp 5720DA75))
  (segment (start 128.27 90.17) (end 127 90.17) (width 0.25) (layer B.Cu) (net 1))
  (segment (start 123.19 86.36) (end 120.65 86.36) (width 0.25) (layer B.Cu) (net 1) (tstamp 5720DA6F))
  (segment (start 127 90.17) (end 123.19 86.36) (width 0.25) (layer B.Cu) (net 1) (tstamp 5720DA6D))
  (segment (start 142.24 95.21) (end 135.93 95.21) (width 0.25) (layer B.Cu) (net 1))
  (segment (start 135.93 95.21) (end 135.89 95.25) (width 0.25) (layer B.Cu) (net 1) (tstamp 5720DA49))
  (segment (start 128.27 74.93) (end 124.46 74.93) (width 0.25) (layer B.Cu) (net 2))
  (segment (start 124.46 74.93) (end 121.92 72.39) (width 0.25) (layer B.Cu) (net 2) (tstamp 5720DA89))
  (segment (start 128.27 92.71) (end 130.81 92.71) (width 0.25) (layer B.Cu) (net 3) (status 400000))
  (segment (start 146.05 92.71) (end 142.24 92.71) (width 0.25) (layer B.Cu) (net 3) (tstamp 5720DAE6) (status 800000))
  (segment (start 146.05 113.03) (end 146.05 92.71) (width 0.25) (layer B.Cu) (net 3) (tstamp 5720DAE5))
  (segment (start 130.81 113.03) (end 146.05 113.03) (width 0.25) (layer B.Cu) (net 3) (tstamp 5720DAE4))
  (segment (start 130.81 92.71) (end 130.81 113.03) (width 0.25) (layer B.Cu) (net 3) (tstamp 5720DAE3))
  (segment (start 107.95 88.9) (end 111.76 88.9) (width 0.25) (layer B.Cu) (net 3) (status C00000))
  (segment (start 102.87 88.9) (end 107.95 88.9) (width 0.25) (layer B.Cu) (net 3) (status C00000))
  (segment (start 102.87 88.9) (end 102.87 72.39) (width 0.25) (layer B.Cu) (net 3) (status C00000))
  (segment (start 120.65 90.17) (end 116.84 90.17) (width 0.25) (layer B.Cu) (net 3))
  (segment (start 116.84 90.17) (end 115.57 88.9) (width 0.25) (layer B.Cu) (net 3) (tstamp 5720DA67))
  (segment (start 115.57 88.9) (end 111.76 88.9) (width 0.25) (layer B.Cu) (net 3) (tstamp 5720DA69))
  (segment (start 128.27 92.71) (end 125.73 92.71) (width 0.25) (layer B.Cu) (net 3))
  (segment (start 123.19 90.17) (end 120.65 90.17) (width 0.25) (layer B.Cu) (net 3) (tstamp 5720DA63))
  (segment (start 125.73 92.71) (end 123.19 90.17) (width 0.25) (layer B.Cu) (net 3) (tstamp 5720DA61))
  (segment (start 142.24 92.71) (end 139.7 92.71) (width 0.25) (layer B.Cu) (net 3))
  (segment (start 137.16 90.17) (end 135.89 90.17) (width 0.25) (layer B.Cu) (net 3) (tstamp 5720DA4E))
  (segment (start 139.7 92.71) (end 137.16 90.17) (width 0.25) (layer B.Cu) (net 3) (tstamp 5720DA4C))
  (segment (start 107.95 91.4) (end 107.95 95.25) (width 0.25) (layer B.Cu) (net 4) (status 400000))
  (segment (start 107.95 95.25) (end 120.65 95.25) (width 0.25) (layer B.Cu) (net 4) (tstamp 5720DAC4) (status 800000))
  (segment (start 128.27 95.25) (end 120.65 95.25) (width 0.25) (layer B.Cu) (net 4))
  (segment (start 102.87 91.4) (end 102.87 100.33) (width 0.25) (layer B.Cu) (net 5) (status 400000))
  (segment (start 102.87 100.33) (end 120.65 100.33) (width 0.25) (layer B.Cu) (net 5) (tstamp 5720DAC7) (status 800000))
  (segment (start 128.27 97.79) (end 124.46 97.79) (width 0.25) (layer B.Cu) (net 5))
  (segment (start 121.92 100.33) (end 120.65 100.33) (width 0.25) (layer B.Cu) (net 5) (tstamp 5720DA5B))
  (segment (start 124.46 97.79) (end 121.92 100.33) (width 0.25) (layer B.Cu) (net 5) (tstamp 5720DA5A))
  (segment (start 111.76 77.47) (end 128.27 77.47) (width 0.25) (layer B.Cu) (net 6))
  (segment (start 128.27 80.01) (end 116.84 80.01) (width 0.25) (layer B.Cu) (net 7))
  (segment (start 115.57 81.28) (end 111.76 81.28) (width 0.25) (layer B.Cu) (net 7) (tstamp 5720DA80))
  (segment (start 116.84 80.01) (end 115.57 81.28) (width 0.25) (layer B.Cu) (net 7) (tstamp 5720DA7F))
  (segment (start 128.27 82.55) (end 120.65 82.55) (width 0.25) (layer B.Cu) (net 8))
  (segment (start 135.89 107.95) (end 138.43 107.95) (width 0.25) (layer B.Cu) (net 15))
  (segment (start 139.7 109.22) (end 142.24 109.22) (width 0.25) (layer B.Cu) (net 15) (tstamp 5720DA56))
  (segment (start 138.43 107.95) (end 139.7 109.22) (width 0.25) (layer B.Cu) (net 15) (tstamp 5720DA54))
  (segment (start 135.89 105.41) (end 142.24 105.41) (width 0.25) (layer B.Cu) (net 16))
  (segment (start 142.24 88.9) (end 139.7 88.9) (width 0.25) (layer B.Cu) (net 21))
  (segment (start 138.43 87.63) (end 135.89 87.63) (width 0.25) (layer B.Cu) (net 21) (tstamp 5720DA45))
  (segment (start 139.7 88.9) (end 138.43 87.63) (width 0.25) (layer B.Cu) (net 21) (tstamp 5720DA43))
  (segment (start 142.24 85.09) (end 135.89 85.09) (width 0.25) (layer B.Cu) (net 22))

)
