(kicad_pcb (version 4) (host pcbnew 4.0.2-stable)

  (general
    (links 14)
    (no_connects 0)
    (area 0 0 0 0)
    (thickness 1.6)
    (drawings 0)
    (tracks 29)
    (zones 0)
    (modules 15)
    (nets 7)
  )

  (page A4)
  (layers
    (0 F.Cu signal)
    (31 B.Cu signal)
    (32 B.Adhes user)
    (33 F.Adhes user)
    (34 B.Paste user)
    (35 F.Paste user)
    (36 B.SilkS user)
    (37 F.SilkS user)
    (38 B.Mask user)
    (39 F.Mask user)
    (40 Dwgs.User user)
    (41 Cmts.User user)
    (42 Eco1.User user)
    (43 Eco2.User user)
    (44 Edge.Cuts user)
    (45 Margin user)
    (46 B.CrtYd user)
    (47 F.CrtYd user)
    (48 B.Fab user)
    (49 F.Fab user)
  )

  (setup
    (last_trace_width 0.25)
    (trace_clearance 0.2)
    (zone_clearance 0.508)
    (zone_45_only no)
    (trace_min 0.2)
    (segment_width 0.2)
    (edge_width 0.15)
    (via_size 0.6)
    (via_drill 0.4)
    (via_min_size 0.4)
    (via_min_drill 0.3)
    (uvia_size 0.3)
    (uvia_drill 0.1)
    (uvias_allowed no)
    (uvia_min_size 0.2)
    (uvia_min_drill 0.1)
    (pcb_text_width 0.3)
    (pcb_text_size 1.5 1.5)
    (mod_edge_width 0.15)
    (mod_text_size 1 1)
    (mod_text_width 0.15)
    (pad_size 1.524 1.524)
    (pad_drill 0.762)
    (pad_to_mask_clearance 0.2)
    (aux_axis_origin 0 0)
    (visible_elements 7FFFFFFF)
    (pcbplotparams
      (layerselection 0x00030_80000001)
      (usegerberextensions false)
      (excludeedgelayer true)
      (linewidth 0.100000)
      (plotframeref false)
      (viasonmask false)
      (mode 1)
      (useauxorigin false)
      (hpglpennumber 1)
      (hpglpenspeed 20)
      (hpglpendiameter 15)
      (hpglpenoverlay 2)
      (psnegative false)
      (psa4output false)
      (plotreference true)
      (plotvalue true)
      (plotinvisibletext false)
      (padsonsilk false)
      (subtractmaskfromsilk false)
      (outputformat 1)
      (mirror false)
      (drillshape 1)
      (scaleselection 1)
      (outputdirectory "../Nowy folder (2)/"))
  )

  (net 0 "")
  (net 1 "Net-(10k1-Pad1)")
  (net 2 "Net-(10k1-Pad2)")
  (net 3 "Net-(P2-Pad1)")
  (net 4 "Net-(C1-Pad1)")
  (net 5 "Net-(C1-Pad2)")
  (net 6 "Net-(P9-Pad1)")

  (net_class Default "To jest domyślna klasa połączeń."
    (clearance 0.2)
    (trace_width 0.25)
    (via_dia 0.6)
    (via_drill 0.4)
    (uvia_dia 0.3)
    (uvia_drill 0.1)
    (add_net "Net-(10k1-Pad1)")
    (add_net "Net-(10k1-Pad2)")
    (add_net "Net-(C1-Pad1)")
    (add_net "Net-(C1-Pad2)")
    (add_net "Net-(P2-Pad1)")
    (add_net "Net-(P9-Pad1)")
  )

  (module Resistors_ThroughHole:Resistor_Ceramic_Horizontal_L50mm-W14mm-H13mm-p60mm (layer F.Cu) (tedit 53FEE67B) (tstamp 571712D7)
    (at 111.76 116.84 270)
    (descr "Resistor, Ceramic, Horizontal")
    (tags "Resistor, Ceramic, Horizontal")
    (path /5717190B)
    (fp_text reference R2 (at 0 -8.89 270) (layer F.SilkS)
      (effects (font (size 1 1) (thickness 0.15)))
    )
    (fp_text value 30R (at 0 8.89 270) (layer F.Fab)
      (effects (font (size 1 1) (thickness 0.15)))
    )
    (fp_line (start -25.019 -7.112) (end -25.019 7.112) (layer F.SilkS) (width 0.15))
    (fp_line (start -25.019 7.112) (end 24.384 7.112) (layer F.SilkS) (width 0.15))
    (fp_line (start 24.384 7.112) (end 24.384 -7.112) (layer F.SilkS) (width 0.15))
    (fp_line (start 24.384 -7.112) (end -25.019 -7.112) (layer F.SilkS) (width 0.15))
    (fp_line (start -25.019 0) (end -29.21 0) (layer F.SilkS) (width 0.15))
    (fp_line (start 24.384 0) (end 29.21 0) (layer F.SilkS) (width 0.15))
    (pad 1 thru_hole circle (at -30.48 0 90) (size 1.8 1.8) (drill 0.9) (layers *.Cu *.Mask F.SilkS)
      (net 5 "Net-(C1-Pad2)"))
    (pad 2 thru_hole circle (at 30.48 0 90) (size 1.8 1.8) (drill 0.9) (layers *.Cu *.Mask F.SilkS)
      (net 6 "Net-(P9-Pad1)"))
    (model Resistors_ThroughHole.3dshapes/Resistor_Ceramic_Horizontal_L50mm-W14mm-H13mm-p60mm.wrl
      (at (xyz 0 0 0))
      (scale (xyz 4 4 4))
      (rotate (xyz 0 0 0))
    )
  )

  (module Resistors_ThroughHole:Resistor_Horizontal_RM10mm (layer F.Cu) (tedit 57138FBB) (tstamp 57138DF6)
    (at 105.41 64.77)
    (descr "Resistor, Axial,  RM 10mm, 1/3W")
    (tags "Resistor Axial RM 10mm 1/3W")
    (path /56FF8221)
    (fp_text reference 10k1 (at 5.08 0) (layer F.SilkS)
      (effects (font (size 1 1) (thickness 0.15)))
    )
    (fp_text value R (at 5.08 2.54) (layer F.Fab)
      (effects (font (size 1 1) (thickness 0.15)))
    )
    (fp_line (start -1.25 -1.5) (end 11.4 -1.5) (layer F.CrtYd) (width 0.05))
    (fp_line (start -1.25 1.5) (end -1.25 -1.5) (layer F.CrtYd) (width 0.05))
    (fp_line (start 11.4 -1.5) (end 11.4 1.5) (layer F.CrtYd) (width 0.05))
    (fp_line (start -1.25 1.5) (end 11.4 1.5) (layer F.CrtYd) (width 0.05))
    (fp_line (start 2.54 -1.27) (end 7.62 -1.27) (layer F.SilkS) (width 0.15))
    (fp_line (start 7.62 -1.27) (end 7.62 1.27) (layer F.SilkS) (width 0.15))
    (fp_line (start 7.62 1.27) (end 2.54 1.27) (layer F.SilkS) (width 0.15))
    (fp_line (start 2.54 1.27) (end 2.54 -1.27) (layer F.SilkS) (width 0.15))
    (fp_line (start 2.54 0) (end 1.27 0) (layer F.SilkS) (width 0.15))
    (fp_line (start 7.62 0) (end 8.89 0) (layer F.SilkS) (width 0.15))
    (pad 1 thru_hole circle (at 0 0) (size 1.99898 1.99898) (drill 1.00076) (layers *.Cu *.SilkS *.Mask)
      (net 1 "Net-(10k1-Pad1)"))
    (pad 2 thru_hole circle (at 10.16 0) (size 1.99898 1.99898) (drill 1.00076) (layers *.Cu *.SilkS *.Mask)
      (net 2 "Net-(10k1-Pad2)"))
    (model Resistors_ThroughHole.3dshapes/Resistor_Horizontal_RM10mm.wrl
      (at (xyz 0.2 0 0))
      (scale (xyz 0.4 0.4 0.4))
      (rotate (xyz 0 0 0))
    )
  )

  (module LEDs:LED-3MM (layer F.Cu) (tedit 559B82F6) (tstamp 57138DFC)
    (at 106.68 73.66 90)
    (descr "LED 3mm round vertical")
    (tags "LED  3mm round vertical")
    (path /56FF81D6)
    (fp_text reference D1 (at 1.91 3.06 90) (layer F.SilkS)
      (effects (font (size 1 1) (thickness 0.15)))
    )
    (fp_text value LED (at 1.3 -2.9 90) (layer F.Fab)
      (effects (font (size 1 1) (thickness 0.15)))
    )
    (fp_line (start -1.2 2.3) (end 3.8 2.3) (layer F.CrtYd) (width 0.05))
    (fp_line (start 3.8 2.3) (end 3.8 -2.2) (layer F.CrtYd) (width 0.05))
    (fp_line (start 3.8 -2.2) (end -1.2 -2.2) (layer F.CrtYd) (width 0.05))
    (fp_line (start -1.2 -2.2) (end -1.2 2.3) (layer F.CrtYd) (width 0.05))
    (fp_line (start -0.199 1.314) (end -0.199 1.114) (layer F.SilkS) (width 0.15))
    (fp_line (start -0.199 -1.28) (end -0.199 -1.1) (layer F.SilkS) (width 0.15))
    (fp_arc (start 1.301 0.034) (end -0.199 -1.286) (angle 108.5) (layer F.SilkS) (width 0.15))
    (fp_arc (start 1.301 0.034) (end 0.25 -1.1) (angle 85.7) (layer F.SilkS) (width 0.15))
    (fp_arc (start 1.311 0.034) (end 3.051 0.994) (angle 110) (layer F.SilkS) (width 0.15))
    (fp_arc (start 1.301 0.034) (end 2.335 1.094) (angle 87.5) (layer F.SilkS) (width 0.15))
    (fp_text user K (at -1.69 1.74 90) (layer F.SilkS)
      (effects (font (size 1 1) (thickness 0.15)))
    )
    (pad 1 thru_hole rect (at 0 0 180) (size 2 2) (drill 1.00076) (layers *.Cu *.Mask F.SilkS)
      (net 4 "Net-(C1-Pad1)"))
    (pad 2 thru_hole circle (at 2.54 0 90) (size 2 2) (drill 1.00076) (layers *.Cu *.Mask F.SilkS)
      (net 2 "Net-(10k1-Pad2)"))
    (model LEDs.3dshapes/LED-3MM.wrl
      (at (xyz 0.05 0 0))
      (scale (xyz 1 1 1))
      (rotate (xyz 0 0 90))
    )
  )

  (module Pin_Headers:Pin_Header_Straight_1x01 (layer F.Cu) (tedit 54EA08DC) (tstamp 57138E01)
    (at 100.33 64.77)
    (descr "Through hole pin header")
    (tags "pin header")
    (path /56FF7E78)
    (fp_text reference P1 (at 0 -5.1) (layer F.SilkS)
      (effects (font (size 1 1) (thickness 0.15)))
    )
    (fp_text value 5V (at 0 -3.1) (layer F.Fab)
      (effects (font (size 1 1) (thickness 0.15)))
    )
    (fp_line (start 1.55 -1.55) (end 1.55 0) (layer F.SilkS) (width 0.15))
    (fp_line (start -1.75 -1.75) (end -1.75 1.75) (layer F.CrtYd) (width 0.05))
    (fp_line (start 1.75 -1.75) (end 1.75 1.75) (layer F.CrtYd) (width 0.05))
    (fp_line (start -1.75 -1.75) (end 1.75 -1.75) (layer F.CrtYd) (width 0.05))
    (fp_line (start -1.75 1.75) (end 1.75 1.75) (layer F.CrtYd) (width 0.05))
    (fp_line (start -1.55 0) (end -1.55 -1.55) (layer F.SilkS) (width 0.15))
    (fp_line (start -1.55 -1.55) (end 1.55 -1.55) (layer F.SilkS) (width 0.15))
    (fp_line (start -1.27 1.27) (end 1.27 1.27) (layer F.SilkS) (width 0.15))
    (pad 1 thru_hole rect (at 0 0) (size 2.2352 2.2352) (drill 1.016) (layers *.Cu *.Mask F.SilkS)
      (net 1 "Net-(10k1-Pad1)"))
    (model Pin_Headers.3dshapes/Pin_Header_Straight_1x01.wrl
      (at (xyz 0 0 0))
      (scale (xyz 1 1 1))
      (rotate (xyz 0 0 90))
    )
  )

  (module Pin_Headers:Pin_Header_Straight_1x01 (layer F.Cu) (tedit 54EA08DC) (tstamp 57138E06)
    (at 100.33 58.42)
    (descr "Through hole pin header")
    (tags "pin header")
    (path /56FF7EB3)
    (fp_text reference P2 (at 0 -5.1) (layer F.SilkS)
      (effects (font (size 1 1) (thickness 0.15)))
    )
    (fp_text value DHT11 (at 0 -3.1) (layer F.Fab)
      (effects (font (size 1 1) (thickness 0.15)))
    )
    (fp_line (start 1.55 -1.55) (end 1.55 0) (layer F.SilkS) (width 0.15))
    (fp_line (start -1.75 -1.75) (end -1.75 1.75) (layer F.CrtYd) (width 0.05))
    (fp_line (start 1.75 -1.75) (end 1.75 1.75) (layer F.CrtYd) (width 0.05))
    (fp_line (start -1.75 -1.75) (end 1.75 -1.75) (layer F.CrtYd) (width 0.05))
    (fp_line (start -1.75 1.75) (end 1.75 1.75) (layer F.CrtYd) (width 0.05))
    (fp_line (start -1.55 0) (end -1.55 -1.55) (layer F.SilkS) (width 0.15))
    (fp_line (start -1.55 -1.55) (end 1.55 -1.55) (layer F.SilkS) (width 0.15))
    (fp_line (start -1.27 1.27) (end 1.27 1.27) (layer F.SilkS) (width 0.15))
    (pad 1 thru_hole rect (at 0 0) (size 2.2352 2.2352) (drill 1.016) (layers *.Cu *.Mask F.SilkS)
      (net 3 "Net-(P2-Pad1)"))
    (model Pin_Headers.3dshapes/Pin_Header_Straight_1x01.wrl
      (at (xyz 0 0 0))
      (scale (xyz 1 1 1))
      (rotate (xyz 0 0 90))
    )
  )

  (module Pin_Headers:Pin_Header_Straight_1x01 (layer F.Cu) (tedit 54EA08DC) (tstamp 57138E0B)
    (at 100.33 71.12)
    (descr "Through hole pin header")
    (tags "pin header")
    (path /56FF7EE4)
    (fp_text reference P3 (at 0 -5.1) (layer F.SilkS)
      (effects (font (size 1 1) (thickness 0.15)))
    )
    (fp_text value FOT (at 0 -3.1) (layer F.Fab)
      (effects (font (size 1 1) (thickness 0.15)))
    )
    (fp_line (start 1.55 -1.55) (end 1.55 0) (layer F.SilkS) (width 0.15))
    (fp_line (start -1.75 -1.75) (end -1.75 1.75) (layer F.CrtYd) (width 0.05))
    (fp_line (start 1.75 -1.75) (end 1.75 1.75) (layer F.CrtYd) (width 0.05))
    (fp_line (start -1.75 -1.75) (end 1.75 -1.75) (layer F.CrtYd) (width 0.05))
    (fp_line (start -1.75 1.75) (end 1.75 1.75) (layer F.CrtYd) (width 0.05))
    (fp_line (start -1.55 0) (end -1.55 -1.55) (layer F.SilkS) (width 0.15))
    (fp_line (start -1.55 -1.55) (end 1.55 -1.55) (layer F.SilkS) (width 0.15))
    (fp_line (start -1.27 1.27) (end 1.27 1.27) (layer F.SilkS) (width 0.15))
    (pad 1 thru_hole rect (at 0 0) (size 2.2352 2.2352) (drill 1.016) (layers *.Cu *.Mask F.SilkS)
      (net 2 "Net-(10k1-Pad2)"))
    (model Pin_Headers.3dshapes/Pin_Header_Straight_1x01.wrl
      (at (xyz 0 0 0))
      (scale (xyz 1 1 1))
      (rotate (xyz 0 0 90))
    )
  )

  (module Pin_Headers:Pin_Header_Straight_1x01 (layer F.Cu) (tedit 54EA08DC) (tstamp 57138E10)
    (at 100.33 77.47)
    (descr "Through hole pin header")
    (tags "pin header")
    (path /56FF7F65)
    (fp_text reference P4 (at 0 -5.1) (layer F.SilkS)
      (effects (font (size 1 1) (thickness 0.15)))
    )
    (fp_text value GND (at 0 -3.1) (layer F.Fab)
      (effects (font (size 1 1) (thickness 0.15)))
    )
    (fp_line (start 1.55 -1.55) (end 1.55 0) (layer F.SilkS) (width 0.15))
    (fp_line (start -1.75 -1.75) (end -1.75 1.75) (layer F.CrtYd) (width 0.05))
    (fp_line (start 1.75 -1.75) (end 1.75 1.75) (layer F.CrtYd) (width 0.05))
    (fp_line (start -1.75 -1.75) (end 1.75 -1.75) (layer F.CrtYd) (width 0.05))
    (fp_line (start -1.75 1.75) (end 1.75 1.75) (layer F.CrtYd) (width 0.05))
    (fp_line (start -1.55 0) (end -1.55 -1.55) (layer F.SilkS) (width 0.15))
    (fp_line (start -1.55 -1.55) (end 1.55 -1.55) (layer F.SilkS) (width 0.15))
    (fp_line (start -1.27 1.27) (end 1.27 1.27) (layer F.SilkS) (width 0.15))
    (pad 1 thru_hole rect (at 0 0) (size 2.2352 2.2352) (drill 1.016) (layers *.Cu *.Mask F.SilkS)
      (net 4 "Net-(C1-Pad1)"))
    (model Pin_Headers.3dshapes/Pin_Header_Straight_1x01.wrl
      (at (xyz 0 0 0))
      (scale (xyz 1 1 1))
      (rotate (xyz 0 0 90))
    )
  )

  (module Pin_Headers:Pin_Header_Straight_1x01 (layer F.Cu) (tedit 54EA08DC) (tstamp 57138E15)
    (at 124.46 66.04)
    (descr "Through hole pin header")
    (tags "pin header")
    (path /5713911E)
    (fp_text reference P5 (at 0 -5.1) (layer F.SilkS)
      (effects (font (size 1 1) (thickness 0.15)))
    )
    (fp_text value DHT (at 0 -3.1) (layer F.Fab)
      (effects (font (size 1 1) (thickness 0.15)))
    )
    (fp_line (start 1.55 -1.55) (end 1.55 0) (layer F.SilkS) (width 0.15))
    (fp_line (start -1.75 -1.75) (end -1.75 1.75) (layer F.CrtYd) (width 0.05))
    (fp_line (start 1.75 -1.75) (end 1.75 1.75) (layer F.CrtYd) (width 0.05))
    (fp_line (start -1.75 -1.75) (end 1.75 -1.75) (layer F.CrtYd) (width 0.05))
    (fp_line (start -1.75 1.75) (end 1.75 1.75) (layer F.CrtYd) (width 0.05))
    (fp_line (start -1.55 0) (end -1.55 -1.55) (layer F.SilkS) (width 0.15))
    (fp_line (start -1.55 -1.55) (end 1.55 -1.55) (layer F.SilkS) (width 0.15))
    (fp_line (start -1.27 1.27) (end 1.27 1.27) (layer F.SilkS) (width 0.15))
    (pad 1 thru_hole rect (at 0 0) (size 2.2352 2.2352) (drill 1.016) (layers *.Cu *.Mask F.SilkS)
      (net 1 "Net-(10k1-Pad1)"))
    (model Pin_Headers.3dshapes/Pin_Header_Straight_1x01.wrl
      (at (xyz 0 0 0))
      (scale (xyz 1 1 1))
      (rotate (xyz 0 0 90))
    )
  )

  (module Pin_Headers:Pin_Header_Straight_1x01 (layer F.Cu) (tedit 54EA08DC) (tstamp 57138E1A)
    (at 124.46 60.96)
    (descr "Through hole pin header")
    (tags "pin header")
    (path /571391C2)
    (fp_text reference P6 (at 0 -5.1) (layer F.SilkS)
      (effects (font (size 1 1) (thickness 0.15)))
    )
    (fp_text value DHT (at 0 -3.1) (layer F.Fab)
      (effects (font (size 1 1) (thickness 0.15)))
    )
    (fp_line (start 1.55 -1.55) (end 1.55 0) (layer F.SilkS) (width 0.15))
    (fp_line (start -1.75 -1.75) (end -1.75 1.75) (layer F.CrtYd) (width 0.05))
    (fp_line (start 1.75 -1.75) (end 1.75 1.75) (layer F.CrtYd) (width 0.05))
    (fp_line (start -1.75 -1.75) (end 1.75 -1.75) (layer F.CrtYd) (width 0.05))
    (fp_line (start -1.75 1.75) (end 1.75 1.75) (layer F.CrtYd) (width 0.05))
    (fp_line (start -1.55 0) (end -1.55 -1.55) (layer F.SilkS) (width 0.15))
    (fp_line (start -1.55 -1.55) (end 1.55 -1.55) (layer F.SilkS) (width 0.15))
    (fp_line (start -1.27 1.27) (end 1.27 1.27) (layer F.SilkS) (width 0.15))
    (pad 1 thru_hole rect (at 0 0) (size 2.2352 2.2352) (drill 1.016) (layers *.Cu *.Mask F.SilkS)
      (net 3 "Net-(P2-Pad1)"))
    (model Pin_Headers.3dshapes/Pin_Header_Straight_1x01.wrl
      (at (xyz 0 0 0))
      (scale (xyz 1 1 1))
      (rotate (xyz 0 0 90))
    )
  )

  (module Pin_Headers:Pin_Header_Straight_1x01 (layer F.Cu) (tedit 54EA08DC) (tstamp 57138E1F)
    (at 124.46 72.39)
    (descr "Through hole pin header")
    (tags "pin header")
    (path /571391FB)
    (fp_text reference P7 (at 0 -5.1) (layer F.SilkS)
      (effects (font (size 1 1) (thickness 0.15)))
    )
    (fp_text value DHT (at 0 -3.1) (layer F.Fab)
      (effects (font (size 1 1) (thickness 0.15)))
    )
    (fp_line (start 1.55 -1.55) (end 1.55 0) (layer F.SilkS) (width 0.15))
    (fp_line (start -1.75 -1.75) (end -1.75 1.75) (layer F.CrtYd) (width 0.05))
    (fp_line (start 1.75 -1.75) (end 1.75 1.75) (layer F.CrtYd) (width 0.05))
    (fp_line (start -1.75 -1.75) (end 1.75 -1.75) (layer F.CrtYd) (width 0.05))
    (fp_line (start -1.75 1.75) (end 1.75 1.75) (layer F.CrtYd) (width 0.05))
    (fp_line (start -1.55 0) (end -1.55 -1.55) (layer F.SilkS) (width 0.15))
    (fp_line (start -1.55 -1.55) (end 1.55 -1.55) (layer F.SilkS) (width 0.15))
    (fp_line (start -1.27 1.27) (end 1.27 1.27) (layer F.SilkS) (width 0.15))
    (pad 1 thru_hole rect (at 0 0) (size 2.2352 2.2352) (drill 1.016) (layers *.Cu *.Mask F.SilkS)
      (net 4 "Net-(C1-Pad1)"))
    (model Pin_Headers.3dshapes/Pin_Header_Straight_1x01.wrl
      (at (xyz 0 0 0))
      (scale (xyz 1 1 1))
      (rotate (xyz 0 0 90))
    )
  )

  (module Resistors_ThroughHole:Resistor_Horizontal_RM10mm (layer F.Cu) (tedit 57138FB7) (tstamp 57138E25)
    (at 105.41 48.26 270)
    (descr "Resistor, Axial,  RM 10mm, 1/3W")
    (tags "Resistor Axial RM 10mm 1/3W")
    (path /56FF8256)
    (fp_text reference R1 (at 5.08 -2.54 270) (layer F.SilkS)
      (effects (font (size 1 1) (thickness 0.15)))
    )
    (fp_text value 4,7k (at 5.08 0 270) (layer F.Fab)
      (effects (font (size 1 1) (thickness 0.15)))
    )
    (fp_line (start -1.25 -1.5) (end 11.4 -1.5) (layer F.CrtYd) (width 0.05))
    (fp_line (start -1.25 1.5) (end -1.25 -1.5) (layer F.CrtYd) (width 0.05))
    (fp_line (start 11.4 -1.5) (end 11.4 1.5) (layer F.CrtYd) (width 0.05))
    (fp_line (start -1.25 1.5) (end 11.4 1.5) (layer F.CrtYd) (width 0.05))
    (fp_line (start 2.54 -1.27) (end 7.62 -1.27) (layer F.SilkS) (width 0.15))
    (fp_line (start 7.62 -1.27) (end 7.62 1.27) (layer F.SilkS) (width 0.15))
    (fp_line (start 7.62 1.27) (end 2.54 1.27) (layer F.SilkS) (width 0.15))
    (fp_line (start 2.54 1.27) (end 2.54 -1.27) (layer F.SilkS) (width 0.15))
    (fp_line (start 2.54 0) (end 1.27 0) (layer F.SilkS) (width 0.15))
    (fp_line (start 7.62 0) (end 8.89 0) (layer F.SilkS) (width 0.15))
    (pad 1 thru_hole circle (at 0 0 270) (size 1.99898 1.99898) (drill 1.00076) (layers *.Cu *.SilkS *.Mask)
      (net 3 "Net-(P2-Pad1)"))
    (pad 2 thru_hole circle (at 10.16 0 270) (size 1.99898 1.99898) (drill 1.00076) (layers *.Cu *.SilkS *.Mask)
      (net 1 "Net-(10k1-Pad1)"))
    (model Resistors_ThroughHole.3dshapes/Resistor_Horizontal_RM10mm.wrl
      (at (xyz 0.2 0 0))
      (scale (xyz 0.4 0.4 0.4))
      (rotate (xyz 0 0 0))
    )
  )

  (module Capacitors_ThroughHole:C_Rect_L7_W6_P5 (layer F.Cu) (tedit 0) (tstamp 57139112)
    (at 116.84 80.01 180)
    (descr "Film Capacitor Length 7mm x Width 6mm")
    (tags Capacitor)
    (path /57139321)
    (fp_text reference C1 (at 2.5 -4.25 180) (layer F.SilkS)
      (effects (font (size 1 1) (thickness 0.15)))
    )
    (fp_text value C (at 2.5 4.25 180) (layer F.Fab)
      (effects (font (size 1 1) (thickness 0.15)))
    )
    (fp_line (start -1.25 -3.25) (end 6.25 -3.25) (layer F.CrtYd) (width 0.05))
    (fp_line (start 6.25 -3.25) (end 6.25 3.25) (layer F.CrtYd) (width 0.05))
    (fp_line (start 6.25 3.25) (end -1.25 3.25) (layer F.CrtYd) (width 0.05))
    (fp_line (start -1.25 3.25) (end -1.25 -3.25) (layer F.CrtYd) (width 0.05))
    (fp_line (start -1 -3) (end 6 -3) (layer F.SilkS) (width 0.15))
    (fp_line (start 6 -3) (end 6 3) (layer F.SilkS) (width 0.15))
    (fp_line (start 6 3) (end -1 3) (layer F.SilkS) (width 0.15))
    (fp_line (start -1 3) (end -1 -3) (layer F.SilkS) (width 0.15))
    (pad 1 thru_hole rect (at 0 0 180) (size 1.3 1.3) (drill 0.8) (layers *.Cu *.Mask F.SilkS)
      (net 4 "Net-(C1-Pad1)"))
    (pad 2 thru_hole circle (at 5 0 180) (size 1.3 1.3) (drill 0.8) (layers *.Cu *.Mask F.SilkS)
      (net 5 "Net-(C1-Pad2)"))
    (model Capacitors_ThroughHole.3dshapes/C_Rect_L7_W6_P5.wrl
      (at (xyz 0.098425 0 0))
      (scale (xyz 1 1 1))
      (rotate (xyz 0 0 0))
    )
  )

  (module Pin_Headers:Pin_Header_Straight_1x01 (layer F.Cu) (tedit 54EA08DC) (tstamp 57139117)
    (at 100.33 83.82)
    (descr "Through hole pin header")
    (tags "pin header")
    (path /57139259)
    (fp_text reference P8 (at 0 -5.1) (layer F.SilkS)
      (effects (font (size 1 1) (thickness 0.15)))
    )
    (fp_text value "+12V T" (at 0 -3.1) (layer F.Fab)
      (effects (font (size 1 1) (thickness 0.15)))
    )
    (fp_line (start 1.55 -1.55) (end 1.55 0) (layer F.SilkS) (width 0.15))
    (fp_line (start -1.75 -1.75) (end -1.75 1.75) (layer F.CrtYd) (width 0.05))
    (fp_line (start 1.75 -1.75) (end 1.75 1.75) (layer F.CrtYd) (width 0.05))
    (fp_line (start -1.75 -1.75) (end 1.75 -1.75) (layer F.CrtYd) (width 0.05))
    (fp_line (start -1.75 1.75) (end 1.75 1.75) (layer F.CrtYd) (width 0.05))
    (fp_line (start -1.55 0) (end -1.55 -1.55) (layer F.SilkS) (width 0.15))
    (fp_line (start -1.55 -1.55) (end 1.55 -1.55) (layer F.SilkS) (width 0.15))
    (fp_line (start -1.27 1.27) (end 1.27 1.27) (layer F.SilkS) (width 0.15))
    (pad 1 thru_hole rect (at 0 0) (size 2.2352 2.2352) (drill 1.016) (layers *.Cu *.Mask F.SilkS)
      (net 5 "Net-(C1-Pad2)"))
    (model Pin_Headers.3dshapes/Pin_Header_Straight_1x01.wrl
      (at (xyz 0 0 0))
      (scale (xyz 1 1 1))
      (rotate (xyz 0 0 90))
    )
  )

  (module Pin_Headers:Pin_Header_Straight_1x01 (layer F.Cu) (tedit 54EA08DC) (tstamp 5713911C)
    (at 116.84 154.94)
    (descr "Through hole pin header")
    (tags "pin header")
    (path /57139819)
    (fp_text reference P9 (at 0 -5.1) (layer F.SilkS)
      (effects (font (size 1 1) (thickness 0.15)))
    )
    (fp_text value LED (at 0 -3.1) (layer F.Fab)
      (effects (font (size 1 1) (thickness 0.15)))
    )
    (fp_line (start 1.55 -1.55) (end 1.55 0) (layer F.SilkS) (width 0.15))
    (fp_line (start -1.75 -1.75) (end -1.75 1.75) (layer F.CrtYd) (width 0.05))
    (fp_line (start 1.75 -1.75) (end 1.75 1.75) (layer F.CrtYd) (width 0.05))
    (fp_line (start -1.75 -1.75) (end 1.75 -1.75) (layer F.CrtYd) (width 0.05))
    (fp_line (start -1.75 1.75) (end 1.75 1.75) (layer F.CrtYd) (width 0.05))
    (fp_line (start -1.55 0) (end -1.55 -1.55) (layer F.SilkS) (width 0.15))
    (fp_line (start -1.55 -1.55) (end 1.55 -1.55) (layer F.SilkS) (width 0.15))
    (fp_line (start -1.27 1.27) (end 1.27 1.27) (layer F.SilkS) (width 0.15))
    (pad 1 thru_hole rect (at 0 0) (size 2.2352 2.2352) (drill 1.016) (layers *.Cu *.Mask F.SilkS)
      (net 6 "Net-(P9-Pad1)"))
    (model Pin_Headers.3dshapes/Pin_Header_Straight_1x01.wrl
      (at (xyz 0 0 0))
      (scale (xyz 1 1 1))
      (rotate (xyz 0 0 90))
    )
  )

  (module Pin_Headers:Pin_Header_Straight_1x01 (layer F.Cu) (tedit 54EA08DC) (tstamp 57139121)
    (at 123.19 154.94)
    (descr "Through hole pin header")
    (tags "pin header")
    (path /57139862)
    (fp_text reference P10 (at 0 -5.1) (layer F.SilkS)
      (effects (font (size 1 1) (thickness 0.15)))
    )
    (fp_text value LED (at 0 -3.1) (layer F.Fab)
      (effects (font (size 1 1) (thickness 0.15)))
    )
    (fp_line (start 1.55 -1.55) (end 1.55 0) (layer F.SilkS) (width 0.15))
    (fp_line (start -1.75 -1.75) (end -1.75 1.75) (layer F.CrtYd) (width 0.05))
    (fp_line (start 1.75 -1.75) (end 1.75 1.75) (layer F.CrtYd) (width 0.05))
    (fp_line (start -1.75 -1.75) (end 1.75 -1.75) (layer F.CrtYd) (width 0.05))
    (fp_line (start -1.75 1.75) (end 1.75 1.75) (layer F.CrtYd) (width 0.05))
    (fp_line (start -1.55 0) (end -1.55 -1.55) (layer F.SilkS) (width 0.15))
    (fp_line (start -1.55 -1.55) (end 1.55 -1.55) (layer F.SilkS) (width 0.15))
    (fp_line (start -1.27 1.27) (end 1.27 1.27) (layer F.SilkS) (width 0.15))
    (pad 1 thru_hole rect (at 0 0) (size 2.2352 2.2352) (drill 1.016) (layers *.Cu *.Mask F.SilkS)
      (net 4 "Net-(C1-Pad1)"))
    (model Pin_Headers.3dshapes/Pin_Header_Straight_1x01.wrl
      (at (xyz 0 0 0))
      (scale (xyz 1 1 1))
      (rotate (xyz 0 0 90))
    )
  )

  (segment (start 124.46 66.04) (end 119.38 66.04) (width 0.25) (layer B.Cu) (net 1))
  (segment (start 119.38 58.42) (end 105.41 58.42) (width 0.25) (layer B.Cu) (net 1) (tstamp 57139014))
  (segment (start 119.38 66.04) (end 119.38 58.42) (width 0.25) (layer B.Cu) (net 1) (tstamp 57139013))
  (segment (start 100.33 64.77) (end 105.41 64.77) (width 0.25) (layer B.Cu) (net 1))
  (segment (start 105.41 64.77) (end 105.41 58.42) (width 0.25) (layer B.Cu) (net 1) (tstamp 57138FF4))
  (segment (start 100.33 71.12) (end 106.68 71.12) (width 0.25) (layer B.Cu) (net 2))
  (segment (start 106.68 71.12) (end 115.57 71.12) (width 0.25) (layer B.Cu) (net 2) (tstamp 57138FF7))
  (segment (start 115.57 71.12) (end 115.57 64.77) (width 0.25) (layer B.Cu) (net 2) (tstamp 57138FF8))
  (segment (start 124.46 60.96) (end 124.46 54.61) (width 0.25) (layer B.Cu) (net 3))
  (segment (start 110.49 48.26) (end 105.41 48.26) (width 0.25) (layer B.Cu) (net 3) (tstamp 57139019))
  (segment (start 110.49 54.61) (end 110.49 48.26) (width 0.25) (layer B.Cu) (net 3) (tstamp 57139018))
  (segment (start 124.46 54.61) (end 110.49 54.61) (width 0.25) (layer B.Cu) (net 3) (tstamp 57139017))
  (segment (start 105.41 48.26) (end 100.33 48.26) (width 0.25) (layer B.Cu) (net 3) (tstamp 57138FF0))
  (segment (start 100.33 48.26) (end 100.33 58.42) (width 0.25) (layer B.Cu) (net 3) (tstamp 57138FF1))
  (segment (start 123.19 154.94) (end 123.19 80.01) (width 0.25) (layer B.Cu) (net 4) (status 400000))
  (segment (start 123.19 80.01) (end 116.84 80.01) (width 0.25) (layer B.Cu) (net 4) (tstamp 57171479) (status 800000))
  (segment (start 116.84 80.01) (end 116.84 73.66) (width 0.25) (layer B.Cu) (net 4))
  (segment (start 124.46 72.39) (end 119.38 72.39) (width 0.25) (layer B.Cu) (net 4))
  (segment (start 119.38 73.66) (end 116.84 73.66) (width 0.25) (layer B.Cu) (net 4) (tstamp 5713902E))
  (segment (start 116.84 73.66) (end 106.68 73.66) (width 0.25) (layer B.Cu) (net 4) (tstamp 57139183))
  (segment (start 119.38 72.39) (end 119.38 73.66) (width 0.25) (layer B.Cu) (net 4) (tstamp 5713902D))
  (segment (start 100.33 77.47) (end 106.68 77.47) (width 0.25) (layer B.Cu) (net 4))
  (segment (start 106.68 77.47) (end 106.68 73.66) (width 0.25) (layer B.Cu) (net 4) (tstamp 57138FFB))
  (segment (start 111.76 86.36) (end 111.76 83.82) (width 0.25) (layer B.Cu) (net 5) (status 400000))
  (segment (start 100.33 83.82) (end 111.76 83.82) (width 0.25) (layer B.Cu) (net 5))
  (segment (start 111.84 83.74) (end 111.84 80.01) (width 0.25) (layer B.Cu) (net 5) (tstamp 5713917B))
  (segment (start 111.76 83.82) (end 111.84 83.74) (width 0.25) (layer B.Cu) (net 5) (tstamp 5713917A))
  (segment (start 111.76 147.32) (end 116.84 147.32) (width 0.25) (layer B.Cu) (net 6) (status 400000))
  (segment (start 116.84 147.32) (end 116.84 154.94) (width 0.25) (layer B.Cu) (net 6) (tstamp 57171476) (status 800000))

)
