EESchema Schematic File Version 2
LIBS:power
LIBS:device
LIBS:transistors
LIBS:conn
LIBS:linear
LIBS:regul
LIBS:74xx
LIBS:cmos4000
LIBS:adc-dac
LIBS:memory
LIBS:xilinx
LIBS:microcontrollers
LIBS:dsp
LIBS:microchip
LIBS:analog_switches
LIBS:motorola
LIBS:texas
LIBS:intel
LIBS:audio
LIBS:interface
LIBS:digital-audio
LIBS:philips
LIBS:display
LIBS:cypress
LIBS:siliconi
LIBS:opto
LIBS:atmel
LIBS:contrib
LIBS:valves
LIBS:Sloiki_prostrze-cache
EELAYER 25 0
EELAYER END
$Descr A4 11693 8268
encoding utf-8
Sheet 1 1
Title ""
Date ""
Rev ""
Comp ""
Comment1 ""
Comment2 ""
Comment3 ""
Comment4 ""
$EndDescr
$Comp
L GND #PWR01
U 1 1 56FF7D9F
P 10750 6200
F 0 "#PWR01" H 10750 5950 50  0001 C CNN
F 1 "GND" H 10750 6050 50  0000 C CNN
F 2 "" H 10750 6200 50  0000 C CNN
F 3 "" H 10750 6200 50  0000 C CNN
	1    10750 6200
	1    0    0    -1  
$EndComp
$Comp
L VCC #PWR02
U 1 1 56FF7DB3
P 10450 6150
F 0 "#PWR02" H 10450 6000 50  0001 C CNN
F 1 "VCC" H 10450 6300 50  0000 C CNN
F 2 "" H 10450 6150 50  0000 C CNN
F 3 "" H 10450 6150 50  0000 C CNN
	1    10450 6150
	1    0    0    -1  
$EndComp
$Comp
L PWR_FLAG #FLG03
U 1 1 56FF7DC7
P 10750 6200
F 0 "#FLG03" H 10750 6295 50  0001 C CNN
F 1 "PWR_FLAG" H 10750 6380 50  0000 C CNN
F 2 "" H 10750 6200 50  0000 C CNN
F 3 "" H 10750 6200 50  0000 C CNN
	1    10750 6200
	1    0    0    -1  
$EndComp
$Comp
L PWR_FLAG #FLG04
U 1 1 56FF7DDB
P 10450 6150
F 0 "#FLG04" H 10450 6245 50  0001 C CNN
F 1 "PWR_FLAG" H 10450 6330 50  0000 C CNN
F 2 "" H 10450 6150 50  0000 C CNN
F 3 "" H 10450 6150 50  0000 C CNN
	1    10450 6150
	-1   0    0    1   
$EndComp
$Comp
L CONN_01X01 P1
U 1 1 56FF7E78
P 4250 3100
F 0 "P1" H 4250 3200 50  0000 C CNN
F 1 "5V" V 4350 3100 50  0000 C CNN
F 2 "Pin_Headers:Pin_Header_Straight_1x01" H 4250 3100 50  0001 C CNN
F 3 "" H 4250 3100 50  0000 C CNN
	1    4250 3100
	-1   0    0    1   
$EndComp
$Comp
L CONN_01X01 P2
U 1 1 56FF7EB3
P 4250 3350
F 0 "P2" H 4250 3450 50  0000 C CNN
F 1 "DHT11" V 4350 3350 50  0000 C CNN
F 2 "Pin_Headers:Pin_Header_Straight_1x01" H 4250 3350 50  0001 C CNN
F 3 "" H 4250 3350 50  0000 C CNN
	1    4250 3350
	-1   0    0    1   
$EndComp
$Comp
L CONN_01X01 P3
U 1 1 56FF7EE4
P 4250 3550
F 0 "P3" H 4250 3650 50  0000 C CNN
F 1 "FOT" V 4350 3550 50  0000 C CNN
F 2 "Pin_Headers:Pin_Header_Straight_1x01" H 4250 3550 50  0001 C CNN
F 3 "" H 4250 3550 50  0000 C CNN
	1    4250 3550
	-1   0    0    1   
$EndComp
$Comp
L CONN_01X01 P4
U 1 1 56FF7F65
P 4250 3800
F 0 "P4" H 4250 3900 50  0000 C CNN
F 1 "GND" V 4350 3800 50  0000 C CNN
F 2 "Pin_Headers:Pin_Header_Straight_1x01" H 4250 3800 50  0001 C CNN
F 3 "" H 4250 3800 50  0000 C CNN
	1    4250 3800
	-1   0    0    1   
$EndComp
$Comp
L LED D1
U 1 1 56FF81D6
P 5550 3600
F 0 "D1" H 5550 3700 50  0000 C CNN
F 1 "LED" H 5550 3500 50  0000 C CNN
F 2 "LEDs:LED-3MM" H 5550 3600 50  0001 C CNN
F 3 "" H 5550 3600 50  0000 C CNN
	1    5550 3600
	-1   0    0    1   
$EndComp
$Comp
L R 10k1
U 1 1 56FF8221
P 5350 3450
F 0 "10k1" V 5300 3450 50  0000 C CNN
F 1 "R" V 5350 3450 50  0000 C CNN
F 2 "Resistors_ThroughHole:Resistor_Horizontal_RM10mm" V 5280 3450 50  0001 C CNN
F 3 "" H 5350 3450 50  0000 C CNN
	1    5350 3450
	1    0    0    -1  
$EndComp
$Comp
L R R1
U 1 1 56FF8256
P 6450 3450
F 0 "R1" V 6500 3450 50  0000 C CNN
F 1 "4,7k" V 6450 3450 50  0000 C CNN
F 2 "Resistors_ThroughHole:Resistor_Horizontal_RM10mm" V 6380 3450 50  0001 C CNN
F 3 "" H 6450 3450 50  0000 C CNN
	1    6450 3450
	0    1    1    0   
$EndComp
Wire Wire Line
	5750 3800 5750 3600
Wire Wire Line
	5350 3300 5350 3100
Wire Wire Line
	4450 3100 6300 3100
Wire Wire Line
	5350 3600 4450 3600
Wire Wire Line
	4450 3600 4450 3550
Wire Wire Line
	6600 3800 6600 4300
Connection ~ 5750 3800
Connection ~ 5350 3100
Wire Wire Line
	4450 3250 4450 3350
Wire Wire Line
	6300 3100 6300 4300
Connection ~ 6300 3450
Wire Wire Line
	6600 3250 6600 3650
Wire Wire Line
	6600 3650 6400 3650
Wire Wire Line
	6400 3650 6400 4300
Wire Wire Line
	6600 3250 4450 3250
Connection ~ 6600 3450
$Comp
L CONN_01X01 P5
U 1 1 5713911E
P 6200 4500
F 0 "P5" H 6200 4600 50  0000 C CNN
F 1 "DHT" V 6300 4500 50  0000 C CNN
F 2 "Pin_Headers:Pin_Header_Straight_1x01" H 6200 4500 50  0001 C CNN
F 3 "" H 6200 4500 50  0000 C CNN
	1    6200 4500
	0    1    1    0   
$EndComp
$Comp
L CONN_01X01 P6
U 1 1 571391C2
P 6400 4500
F 0 "P6" H 6400 4600 50  0000 C CNN
F 1 "DHT" V 6500 4500 50  0000 C CNN
F 2 "Pin_Headers:Pin_Header_Straight_1x01" H 6400 4500 50  0001 C CNN
F 3 "" H 6400 4500 50  0000 C CNN
	1    6400 4500
	0    1    1    0   
$EndComp
$Comp
L CONN_01X01 P7
U 1 1 571391FB
P 6600 4500
F 0 "P7" H 6600 4600 50  0000 C CNN
F 1 "DHT" V 6700 4500 50  0000 C CNN
F 2 "Pin_Headers:Pin_Header_Straight_1x01" H 6600 4500 50  0001 C CNN
F 3 "" H 6600 4500 50  0000 C CNN
	1    6600 4500
	0    1    1    0   
$EndComp
Wire Wire Line
	6300 4300 6200 4300
$Comp
L CONN_01X01 P8
U 1 1 57139259
P 4250 4100
F 0 "P8" H 4250 4200 50  0000 C CNN
F 1 "+12V T" V 4350 4100 50  0000 C CNN
F 2 "Pin_Headers:Pin_Header_Straight_1x01" H 4250 4100 50  0001 C CNN
F 3 "" H 4250 4100 50  0000 C CNN
	1    4250 4100
	-1   0    0    1   
$EndComp
$Comp
L C C1
U 1 1 57139321
P 4600 3950
F 0 "C1" H 4625 4050 50  0000 L CNN
F 1 "C" H 4625 3850 50  0000 L CNN
F 2 "Capacitors_ThroughHole:C_Rect_L7_W6_P5" H 4638 3800 50  0001 C CNN
F 3 "" H 4600 3950 50  0000 C CNN
	1    4600 3950
	1    0    0    -1  
$EndComp
Wire Wire Line
	4450 3800 6600 3800
Connection ~ 4600 3800
Wire Wire Line
	4450 4100 4800 4100
$Comp
L CONN_01X01 P9
U 1 1 57139819
P 5100 4300
F 0 "P9" H 5100 4400 50  0000 C CNN
F 1 "LED" V 5200 4300 50  0000 C CNN
F 2 "Pin_Headers:Pin_Header_Straight_1x01" H 5100 4300 50  0001 C CNN
F 3 "" H 5100 4300 50  0000 C CNN
	1    5100 4300
	0    1    1    0   
$EndComp
$Comp
L CONN_01X01 P10
U 1 1 57139862
P 5300 4300
F 0 "P10" H 5300 4400 50  0000 C CNN
F 1 "LED" V 5400 4300 50  0000 C CNN
F 2 "Pin_Headers:Pin_Header_Straight_1x01" H 5300 4300 50  0001 C CNN
F 3 "" H 5300 4300 50  0000 C CNN
	1    5300 4300
	0    1    1    0   
$EndComp
Connection ~ 4600 4100
Connection ~ 5000 3800
$Comp
L R R2
U 1 1 5717190B
P 4950 4100
F 0 "R2" V 5030 4100 50  0000 C CNN
F 1 "30R" V 4950 4100 50  0000 C CNN
F 2 "Resistors_ThroughHole:Resistor_Ceramic_Horizontal_L50mm-W14mm-H13mm-p60mm" V 4880 4100 50  0001 C CNN
F 3 "" H 4950 4100 50  0000 C CNN
	1    4950 4100
	0    -1   -1   0   
$EndComp
Wire Wire Line
	5300 4100 5300 3800
Connection ~ 5300 3800
$EndSCHEMATC
