EESchema Schematic File Version 2
LIBS:power
LIBS:device
LIBS:transistors
LIBS:conn
LIBS:linear
LIBS:regul
LIBS:74xx
LIBS:cmos4000
LIBS:adc-dac
LIBS:memory
LIBS:xilinx
LIBS:microcontrollers
LIBS:dsp
LIBS:microchip
LIBS:analog_switches
LIBS:motorola
LIBS:texas
LIBS:intel
LIBS:audio
LIBS:interface
LIBS:digital-audio
LIBS:philips
LIBS:display
LIBS:cypress
LIBS:siliconi
LIBS:opto
LIBS:atmel
LIBS:contrib
LIBS:valves
LIBS:Uklad_zasilania-cache
EELAYER 25 0
EELAYER END
$Descr A4 11693 8268
encoding utf-8
Sheet 1 1
Title ""
Date ""
Rev ""
Comp ""
Comment1 ""
Comment2 ""
Comment3 ""
Comment4 ""
$EndDescr
$Comp
L C C1
U 1 1 56DC4CE7
P 4100 3200
F 0 "C1" H 4125 3300 50  0000 L CNN
F 1 "100uF" H 4125 3100 50  0000 L CNN
F 2 "Capacitors_ThroughHole:C_Radial_D10_L20_P2.5" H 3950 2600 50  0001 C CNN
F 3 "" H 4100 3200 50  0000 C CNN
	1    4100 3200
	1    0    0    -1  
$EndComp
$Comp
L C C2
U 1 1 56DC4D1A
P 4900 3200
F 0 "C2" H 4925 3300 50  0000 L CNN
F 1 "do 470uF" H 4925 3100 50  0000 L CNN
F 2 "Capacitors_ThroughHole:C_Radial_D10_L20_P2.5" H 4938 3050 50  0001 C CNN
F 3 "" H 4900 3200 50  0000 C CNN
	1    4900 3200
	1    0    0    -1  
$EndComp
$Comp
L GND #PWR2
U 1 1 56DC55C6
P 2550 3350
F 0 "#PWR2" H 2550 3100 50  0001 C CNN
F 1 "GND" H 2550 3200 50  0000 C CNN
F 2 "" H 2550 3350 50  0000 C CNN
F 3 "" H 2550 3350 50  0000 C CNN
	1    2550 3350
	1    0    0    -1  
$EndComp
$Comp
L PWR_FLAG #FLG2
U 1 1 56DC480B
P 10850 6150
F 0 "#FLG2" H 10850 6245 50  0001 C CNN
F 1 "PWR_FLAG" H 10850 6330 50  0000 C CNN
F 2 "" H 10850 6150 50  0000 C CNN
F 3 "" H 10850 6150 50  0000 C CNN
	1    10850 6150
	1    0    0    -1  
$EndComp
$Comp
L GND #PWR4
U 1 1 56DC47F7
P 10850 6150
F 0 "#PWR4" H 10850 5900 50  0001 C CNN
F 1 "GND" H 10850 6000 50  0000 C CNN
F 2 "" H 10850 6150 50  0000 C CNN
F 3 "" H 10850 6150 50  0000 C CNN
	1    10850 6150
	1    0    0    -1  
$EndComp
$Comp
L PWR_FLAG #FLG1
U 1 1 56DC5B9C
P 10450 6100
F 0 "#FLG1" H 10450 6195 50  0001 C CNN
F 1 "PWR_FLAG" H 10450 6280 50  0000 C CNN
F 2 "" H 10450 6100 50  0000 C CNN
F 3 "" H 10450 6100 50  0000 C CNN
	1    10450 6100
	-1   0    0    1   
$EndComp
$Comp
L CONN_01X02 P2
U 1 1 56DC75E2
P 3100 3300
F 0 "P2" H 3100 3450 50  0000 C CNN
F 1 "Transformator" V 3200 3300 50  0000 C CNN
F 2 "Connect:bornier2" H 3100 3300 50  0001 C CNN
F 3 "" H 3100 3300 50  0000 C CNN
	1    3100 3300
	-1   0    0    1   
$EndComp
Wire Wire Line
	3300 3050 3300 3250
$Comp
L CONN_01X02 P1
U 1 1 56DC78E3
P 2750 3300
F 0 "P1" H 2750 3450 50  0000 C CNN
F 1 "Transformator" V 2850 3300 50  0000 C CNN
F 2 "Connect:bornier2" H 2750 3300 50  0001 C CNN
F 3 "" H 2750 3300 50  0000 C CNN
	1    2750 3300
	1    0    0    -1  
$EndComp
$Comp
L +12VA #PWR3
U 1 1 56DC7D00
P 10450 6100
F 0 "#PWR3" H 10450 5950 50  0001 C CNN
F 1 "+12VA" H 10450 6240 50  0000 C CNN
F 2 "" H 10450 6100 50  0000 C CNN
F 3 "" H 10450 6100 50  0000 C CNN
	1    10450 6100
	1    0    0    -1  
$EndComp
$Comp
L +12VA #PWR1
U 1 1 56DC7F9C
P 2550 3250
F 0 "#PWR1" H 2550 3100 50  0001 C CNN
F 1 "+12VA" H 2550 3390 50  0000 C CNN
F 2 "" H 2550 3250 50  0000 C CNN
F 3 "" H 2550 3250 50  0000 C CNN
	1    2550 3250
	1    0    0    -1  
$EndComp
$Comp
L C C3
U 1 1 56DC82AA
P 3850 3200
F 0 "C3" H 3875 3300 50  0000 L CNN
F 1 "2200uF" H 3550 3100 50  0000 L CNN
F 2 "Capacitors_ThroughHole:C_Radial_D10_L20_P2.5" H 3300 2650 50  0001 C CNN
F 3 "" H 3850 3200 50  0000 C CNN
	1    3850 3200
	1    0    0    -1  
$EndComp
Wire Wire Line
	3300 3050 4100 3050
Connection ~ 3850 3050
Connection ~ 3850 3350
Connection ~ 4100 3350
Connection ~ 4500 3350
$Comp
L CONN_01X02 P6
U 1 1 56DC85A6
P 6100 3200
F 0 "P6" H 6100 3350 50  0000 C CNN
F 1 "Zasilanie Arduino" V 6200 3200 50  0000 C CNN
F 2 "Connect:bornier2" H 6100 3200 50  0001 C CNN
F 3 "" H 6100 3200 50  0000 C CNN
	1    6100 3200
	1    0    0    -1  
$EndComp
$Comp
L CONN_01X04 P4
U 1 1 56DC8735
P 5750 3550
F 0 "P4" H 5750 3800 50  0000 C CNN
F 1 "GND dla czujnikow" V 5850 3550 50  0000 C CNN
F 2 "Connect:bornier4" H 5750 3550 50  0001 C CNN
F 3 "" H 5750 3550 50  0000 C CNN
	1    5750 3550
	0    1    1    0   
$EndComp
$Comp
L CONN_01X04 P3
U 1 1 56DC8796
P 5750 2850
F 0 "P3" H 5750 3100 50  0000 C CNN
F 1 "+5V dla czujnikow" V 5850 2850 50  0000 C CNN
F 2 "Connect:bornier4" H 5750 2850 50  0001 C CNN
F 3 "" H 5750 2850 50  0000 C CNN
	1    5750 2850
	0    -1   -1   0   
$EndComp
Connection ~ 4900 3350
Wire Wire Line
	4900 3050 5900 3050
Connection ~ 5800 3050
Connection ~ 5700 3050
Connection ~ 5600 3050
Wire Wire Line
	3300 3350 5900 3350
Connection ~ 5800 3350
Connection ~ 5700 3350
Connection ~ 5600 3350
Wire Wire Line
	5900 3050 5900 3150
Wire Wire Line
	5900 3350 5900 3250
$Comp
L CONN_01X02 P5
U 1 1 56DC8FA3
P 6100 2450
F 0 "P5" H 6100 2600 50  0000 C CNN
F 1 "+12V T dla LED" V 6200 2450 50  0000 C CNN
F 2 "Connect:bornier2" H 6100 2450 50  0001 C CNN
F 3 "" H 6100 2450 50  0000 C CNN
	1    6100 2450
	1    0    0    -1  
$EndComp
Wire Wire Line
	5900 2400 5900 2500
Wire Wire Line
	3850 3050 3850 2500
Wire Wire Line
	3850 2500 5900 2500
$Comp
L LM7805CT U1
U 1 1 56DCC6BC
P 4500 3100
F 0 "U1" H 4300 3300 50  0000 C CNN
F 1 "LM7805CT" H 4500 3300 50  0000 L CNN
F 2 "TO_SOT_Packages_THT:TO-220_Neutral123_Horizontal_LargePads" H 4500 3200 50  0001 C CIN
F 3 "" H 4500 3100 50  0000 C CNN
	1    4500 3100
	1    0    0    -1  
$EndComp
$EndSCHEMATC
